Record Length,2.500000e+03,,  -0.000250000000,   0.56000,
Sample Interval,2.000000e-07,,  -0.000249800000,   0.56800,
Trigger Point,1.250000000000e+03,,  -0.000249600000,   0.55200,
,,,  -0.000249400000,   0.56000,
,,,  -0.000249200000,   0.56000,
,,,  -0.000249000000,   0.55200,
Source,CH1,,  -0.000248800000,   0.56000,
Vertical Units,V,,  -0.000248600000,   0.56000,
Vertical Scale,2.000000e-01,,  -0.000248400000,   0.55200,
Vertical Offset,-1.040000e+00,,  -0.000248200000,   0.56000,
Horizontal Units,s,,  -0.000248000000,   0.56000,
Horizontal Scale,5.000000e-05,,  -0.000247800000,   0.55200,
Pt Fmt,Y,,  -0.000247600000,   0.56000,
Yzero,0.000000e+00,,  -0.000247400000,   0.56000,
Probe Atten,1.000000e+00,,  -0.000247200000,   0.55200,
Model Number,TDS2004C,,  -0.000247000000,   0.56000,
Serial Number,C011861,,  -0.000246800000,   0.56800,
Firmware Version,FV:v24.15,,  -0.000246600000,   0.54400,
,,,-00.000246400000,   0.56000,
,,,-00.000246200000,   0.56000,
,,,-00.000246000000,   0.55200,
,,,-00.000245800000,   0.56000,
,,,-00.000245600000,   0.56000,
,,,-00.000245400000,   0.57600,
,,,-00.000245200000,   0.56000,
,,,-00.000245000000,   0.54400,
,,,-00.000244800000,   0.56000,
,,,-00.000244600000,   0.57600,
,,,-00.000244400000,   0.54400,
,,,-00.000244200000,   0.52800,
,,,-00.000244000000,   0.56000,
,,,-00.000243800000,   0.58400,
,,,-00.000243600000,   0.55200,
,,,-00.000243400000,   0.54400,
,,,-00.000243200000,   0.56800,
,,,-00.000243000000,   0.60000,
,,,-00.000242800000,   0.56000,
,,,-00.000242600000,   0.52800,
,,,-00.000242400000,   0.56000,
,,,-00.000242200000,   0.55200,
,,,-00.000242000000,   0.53600,
,,,-00.000241800000,   0.55200,
,,,-00.000241600000,   0.56800,
,,,-00.000241400000,   0.56000,
,,,-00.000241200000,   0.55200,
,,,-00.000241000000,   0.56800,
,,,-00.000240800000,   0.58400,
,,,-00.000240600000,   0.56000,
,,,-00.000240400000,   0.58400,
,,,-00.000240200000,   0.58400,
,,,-00.000240000000,   0.57600,
,,,-00.000239800000,   0.57600,
,,,-00.000239600000,   0.57600,
,,,-00.000239400000,   0.58400,
,,,-00.000239200000,   0.58400,
,,,-00.000239000000,   0.57600,
,,,-00.000238800000,   0.57600,
,,,-00.000238600000,   0.57600,
,,,-00.000238400000,   0.57600,
,,,-00.000238200000,   0.58400,
,,,-00.000238000000,   0.58400,
,,,-00.000237800000,   0.57600,
,,,-00.000237600000,   0.58400,
,,,-00.000237400000,   0.57600,
,,,-00.000237200000,   0.57600,
,,,-00.000237000000,   0.57600,
,,,-00.000236800000,   0.57600,
,,,-00.000236600000,   0.57600,
,,,-00.000236400000,   0.58400,
,,,-00.000236200000,   0.58400,
,,,-00.000236000000,   0.57600,
,,,-00.000235800000,   0.58400,
,,,-00.000235600000,   0.57600,
,,,-00.000235400000,   0.56000,
,,,-00.000235200000,   0.52000,
,,,-00.000235000000,   0.59200,
,,,-00.000234800000,   0.61600,
,,,-00.000234600000,   0.56800,
,,,-00.000234400000,   0.58400,
,,,-00.000234200000,   0.60800,
,,,-00.000234000000,   0.58400,
,,,-00.000233800000,   0.53600,
,,,-00.000233600000,   0.59200,
,,,-00.000233400000,   0.59200,
,,,-00.000233200000,   0.59200,
,,,-00.000233000000,   0.56800,
,,,-00.000232800000,   0.59200,
,,,-00.000232600000,   0.60800,
,,,-00.000232400000,   0.56800,
,,,-00.000232200000,   0.52000,
,,,-00.000232000000,   0.60000,
,,,-00.000231800000,   0.60000,
,,,-00.000231600000,   0.57600,
,,,-00.000231400000,   0.54400,
,,,-00.000231200000,   0.60000,
,,,-00.000231000000,   0.58400,
,,,-00.000230800000,   0.57600,
,,,-00.000230600000,   0.58400,
,,,-00.000230400000,   0.60000,
,,,-00.000230200000,   0.59200,
,,,-00.000230000000,   0.60800,
,,,-00.000229800000,   0.60800,
,,,-00.000229600000,   0.60000,
,,,-00.000229400000,   0.60800,
,,,-00.000229200000,   0.60000,
,,,-00.000229000000,   0.60800,
,,,-00.000228800000,   0.60800,
,,,-00.000228600000,   0.60800,
,,,-00.000228400000,   0.60000,
,,,-00.000228200000,   0.60800,
,,,-00.000228000000,   0.60800,
,,,-00.000227800000,   0.61600,
,,,-00.000227600000,   0.61600,
,,,-00.000227400000,   0.60000,
,,,-00.000227200000,   0.60000,
,,,-00.000227000000,   0.60800,
,,,-00.000226800000,   0.60000,
,,,-00.000226600000,   0.60800,
,,,-00.000226400000,   0.60000,
,,,-00.000226200000,   0.60000,
,,,-00.000226000000,   0.60800,
,,,-00.000225800000,   0.60800,
,,,-00.000225600000,   0.60000,
,,,-00.000225400000,   0.60000,
,,,-00.000225200000,   0.62400,
,,,-00.000225000000,   0.60800,
,,,-00.000224800000,   0.56800,
,,,-00.000224600000,   0.61600,
,,,-00.000224400000,   0.64000,
,,,-00.000224200000,   0.61600,
,,,-00.000224000000,   0.57600,
,,,-00.000223800000,   0.60800,
,,,-00.000223600000,   0.63200,
,,,-00.000223400000,   0.60000,
,,,-00.000223200000,   0.53600,
,,,-00.000223000000,   0.61600,
,,,-00.000222800000,   0.63200,
,,,-00.000222600000,   0.60000,
,,,-00.000222400000,   0.60000,
,,,-00.000222200000,   0.62400,
,,,-00.000222000000,   0.59200,
,,,-00.000221800000,   0.58400,
,,,-00.000221600000,   0.60800,
,,,-00.000221400000,   0.62400,
,,,-00.000221200000,   0.61600,
,,,-00.000221000000,   0.61600,
,,,-00.000220800000,   0.60000,
,,,-00.000220600000,   0.60800,
,,,-00.000220400000,   0.62400,
,,,-00.000220200000,   0.60800,
,,,-00.000220000000,   0.60800,
,,,-00.000219800000,   0.60000,
,,,-00.000219600000,   0.61600,
,,,-00.000219400000,   0.60800,
,,,-00.000219200000,   0.60000,
,,,-00.000219000000,   0.60800,
,,,-00.000218800000,   0.60000,
,,,-00.000218600000,   0.60800,
,,,-00.000218400000,   0.60800,
,,,-00.000218200000,   0.60800,
,,,-00.000218000000,   0.60800,
,,,-00.000217800000,   0.61600,
,,,-00.000217600000,   0.60800,
,,,-00.000217400000,   0.60800,
,,,-00.000217200000,   0.60800,
,,,-00.000217000000,   0.60800,
,,,-00.000216800000,   0.60000,
,,,-00.000216600000,   0.60800,
,,,-00.000216400000,   0.60000,
,,,-00.000216200000,   0.60800,
,,,-00.000216000000,   0.60000,
,,,-00.000215800000,   0.58400,
,,,-00.000215600000,   0.62400,
,,,-00.000215400000,   0.64800,
,,,-00.000215200000,   0.60800,
,,,-00.000215000000,   0.57600,
,,,-00.000214800000,   0.61600,
,,,-00.000214600000,   0.62400,
,,,-00.000214400000,   0.60000,
,,,-00.000214200000,   0.60000,
,,,-00.000214000000,   0.61600,
,,,-00.000213800000,   0.61600,
,,,-00.000213600000,   0.60800,
,,,-00.000213400000,   0.60000,
,,,-00.000213200000,   0.63200,
,,,-00.000213000000,   0.60800,
,,,-00.000212800000,   0.58400,
,,,-00.000212600000,   0.61600,
,,,-00.000212400000,   0.63200,
,,,-00.000212200000,   0.61600,
,,,-00.000212000000,   0.60000,
,,,-00.000211800000,   0.63200,
,,,-00.000211600000,   0.61600,
,,,-00.000211400000,   0.61600,
,,,-00.000211200000,   0.64000,
,,,-00.000211000000,   0.63200,
,,,-00.000210800000,   0.63200,
,,,-00.000210600000,   0.64000,
,,,-00.000210400000,   0.62400,
,,,-00.000210200000,   0.64000,
,,,-00.000210000000,   0.63200,
,,,-00.000209800000,   0.63200,
,,,-00.000209600000,   0.64000,
,,,-00.000209400000,   0.64000,
,,,-00.000209200000,   0.63200,
,,,-00.000209000000,   0.63200,
,,,-00.000208800000,   0.63200,
,,,-00.000208600000,   0.63200,
,,,-00.000208400000,   0.63200,
,,,-00.000208200000,   0.63200,
,,,-00.000208000000,   0.64000,
,,,-00.000207800000,   0.64800,
,,,-00.000207600000,   0.63200,
,,,-00.000207400000,   0.62400,
,,,-00.000207200000,   0.64000,
,,,-00.000207000000,   0.63200,
,,,-00.000206800000,   0.64000,
,,,-00.000206600000,   0.63200,
,,,-00.000206400000,   0.63200,
,,,-00.000206200000,   0.63200,
,,,-00.000206000000,   0.62400,
,,,-00.000205800000,   0.64000,
,,,-00.000205600000,   0.64000,
,,,-00.000205400000,   0.60800,
,,,-00.000205200000,   0.62400,
,,,-00.000205000000,   0.65600,
,,,-00.000204800000,   0.63200,
,,,-00.000204600000,   0.62400,
,,,-00.000204400000,   0.63200,
,,,-00.000204200000,   0.64800,
,,,-00.000204000000,   0.63200,
,,,-00.000203800000,   0.57600,
,,,-00.000203600000,   0.66400,
,,,-00.000203400000,   0.67200,
,,,-00.000203200000,   0.63200,
,,,-00.000203000000,   0.63200,
,,,-00.000202800000,   0.64800,
,,,-00.000202600000,   0.62400,
,,,-00.000202400000,   0.62400,
,,,-00.000202200000,   0.63200,
,,,-00.000202000000,   0.65600,
,,,-00.000201800000,   0.63200,
,,,-00.000201600000,   0.63200,
,,,-00.000201400000,   0.64800,
,,,-00.000201200000,   0.64800,
,,,-00.000201000000,   0.64800,
,,,-00.000200800000,   0.64800,
,,,-00.000200600000,   0.65600,
,,,-00.000200400000,   0.65600,
,,,-00.000200200000,   0.65600,
,,,-00.000200000000,   0.66400,
,,,-00.000199800000,   0.66400,
,,,-00.000199600000,   0.65600,
,,,-00.000199400000,   0.65600,
,,,-00.000199200000,   0.65600,
,,,-00.000199000000,   0.65600,
,,,-00.000198800000,   0.65600,
,,,-00.000198600000,   0.66400,
,,,-00.000198400000,   0.66400,
,,,-00.000198200000,   0.65600,
,,,-00.000198000000,   0.66400,
,,,-00.000197800000,   0.65600,
,,,-00.000197600000,   0.65600,
,,,-00.000197400000,   0.64800,
,,,-00.000197200000,   0.65600,
,,,-00.000197000000,   0.65600,
,,,-00.000196800000,   0.65600,
,,,-00.000196600000,   0.66400,
,,,-00.000196400000,   0.66400,
,,,-00.000196200000,   0.66400,
,,,-00.000196000000,   0.68000,
,,,-00.000195800000,   0.64000,
,,,-00.000195600000,   0.60800,
,,,-00.000195400000,   0.67200,
,,,-00.000195200000,   0.67200,
,,,-00.000195000000,   0.64000,
,,,-00.000194800000,   0.65600,
,,,-00.000194600000,   0.68000,
,,,-00.000194400000,   0.64800,
,,,-00.000194200000,   0.64800,
,,,-00.000194000000,   0.66400,
,,,-00.000193800000,   0.67200,
,,,-00.000193600000,   0.66400,
,,,-00.000193400000,   0.62400,
,,,-00.000193200000,   0.67200,
,,,-00.000193000000,   0.68800,
,,,-00.000192800000,   0.65600,
,,,-00.000192600000,   0.63200,
,,,-00.000192400000,   0.65600,
,,,-00.000192200000,   0.68000,
,,,-00.000192000000,   0.63200,
,,,-00.000191800000,   0.65600,
,,,-00.000191600000,   0.67200,
,,,-00.000191400000,   0.68800,
,,,-00.000191200000,   0.67200,
,,,-00.000191000000,   0.68000,
,,,-00.000190800000,   0.69600,
,,,-00.000190600000,   0.68000,
,,,-00.000190400000,   0.69600,
,,,-00.000190200000,   0.68000,
,,,-00.000190000000,   0.68000,
,,,-00.000189800000,   0.68800,
,,,-00.000189600000,   0.68000,
,,,-00.000189400000,   0.68800,
,,,-00.000189200000,   0.68000,
,,,-00.000189000000,   0.67200,
,,,-00.000188800000,   0.68000,
,,,-00.000188600000,   0.67200,
,,,-00.000188400000,   0.67200,
,,,-00.000188200000,   0.68800,
,,,-00.000188000000,   0.68000,
,,,-00.000187800000,   0.67200,
,,,-00.000187600000,   0.68000,
,,,-00.000187400000,   0.68000,
,,,-00.000187200000,   0.67200,
,,,-00.000187000000,   0.68000,
,,,-00.000186800000,   0.68000,
,,,-00.000186600000,   0.68000,
,,,-00.000186400000,   0.68800,
,,,-00.000186200000,   0.68000,
,,,-00.000186000000,   0.68000,
,,,-00.000185800000,   0.68000,
,,,-00.000185600000,   0.70400,
,,,-00.000185400000,   0.66400,
,,,-00.000185200000,   0.64800,
,,,-00.000185000000,   0.68000,
,,,-00.000184800000,   0.71200,
,,,-00.000184600000,   0.68000,
,,,-00.000184400000,   0.66400,
,,,-00.000184200000,   0.68800,
,,,-00.000184000000,   0.72800,
,,,-00.000183800000,   0.68000,
,,,-00.000183600000,   0.64800,
,,,-00.000183400000,   0.68800,
,,,-00.000183200000,   0.69600,
,,,-00.000183000000,   0.65600,
,,,-00.000182800000,   0.67200,
,,,-00.000182600000,   0.70400,
,,,-00.000182400000,   0.68000,
,,,-00.000182200000,   0.67200,
,,,-00.000182000000,   0.68800,
,,,-00.000181800000,   0.68800,
,,,-00.000181600000,   0.68000,
,,,-00.000181400000,   0.68800,
,,,-00.000181200000,   0.68000,
,,,-00.000181000000,   0.68000,
,,,-00.000180800000,   0.68000,
,,,-00.000180600000,   0.68000,
,,,-00.000180400000,   0.68000,
,,,-00.000180200000,   0.68800,
,,,-00.000180000000,   0.69600,
,,,-00.000179800000,   0.68000,
,,,-00.000179600000,   0.68000,
,,,-00.000179400000,   0.68000,
,,,-00.000179200000,   0.68000,
,,,-00.000179000000,   0.67200,
,,,-00.000178800000,   0.68800,
,,,-00.000178600000,   0.68800,
,,,-00.000178400000,   0.68000,
,,,-00.000178200000,   0.68800,
,,,-00.000178000000,   0.68000,
,,,-00.000177800000,   0.68000,
,,,-00.000177600000,   0.68000,
,,,-00.000177400000,   0.68000,
,,,-00.000177200000,   0.68000,
,,,-00.000177000000,   0.67200,
,,,-00.000176800000,   0.67200,
,,,-00.000176600000,   0.69600,
,,,-00.000176400000,   0.66400,
,,,-00.000176200000,   0.63200,
,,,-00.000176000000,   0.69600,
,,,-00.000175800000,   0.72000,
,,,-00.000175600000,   0.67200,
,,,-00.000175400000,   0.67200,
,,,-00.000175200000,   0.69600,
,,,-00.000175000000,   0.68800,
,,,-00.000174800000,   0.64800,
,,,-00.000174600000,   0.68000,
,,,-00.000174400000,   0.68800,
,,,-00.000174200000,   0.68800,
,,,-00.000174000000,   0.67200,
,,,-00.000173800000,   0.68000,
,,,-00.000173600000,   0.70400,
,,,-00.000173400000,   0.68800,
,,,-00.000173200000,   0.64800,
,,,-00.000173000000,   0.68000,
,,,-00.000172800000,   0.69600,
,,,-00.000172600000,   0.68800,
,,,-00.000172400000,   0.64800,
,,,-00.000172200000,   0.69600,
,,,-00.000172000000,   0.69600,
,,,-00.000171800000,   0.70400,
,,,-00.000171600000,   0.71200,
,,,-00.000171400000,   0.70400,
,,,-00.000171200000,   0.70400,
,,,-00.000171000000,   0.71200,
,,,-00.000170800000,   0.69600,
,,,-00.000170600000,   0.72000,
,,,-00.000170400000,   0.69600,
,,,-00.000170200000,   0.70400,
,,,-00.000170000000,   0.70400,
,,,-00.000169800000,   0.69600,
,,,-00.000169600000,   0.70400,
,,,-00.000169400000,   0.70400,
,,,-00.000169200000,   0.70400,
,,,-00.000169000000,   0.69600,
,,,-00.000168800000,   0.69600,
,,,-00.000168600000,   0.70400,
,,,-00.000168400000,   0.71200,
,,,-00.000168200000,   0.71200,
,,,-00.000168000000,   0.70400,
,,,-00.000167800000,   0.70400,
,,,-00.000167600000,   0.71200,
,,,-00.000167400000,   0.69600,
,,,-00.000167200000,   0.69600,
,,,-00.000167000000,   0.70400,
,,,-00.000166800000,   0.70400,
,,,-00.000166600000,   0.68800,
,,,-00.000166400000,   0.70400,
,,,-00.000166200000,   0.71200,
,,,-00.000166000000,   0.70400,
,,,-00.000165800000,   0.65600,
,,,-00.000165600000,   0.71200,
,,,-00.000165400000,   0.72800,
,,,-00.000165200000,   0.71200,
,,,-00.000165000000,   0.68000,
,,,-00.000164800000,   0.71200,
,,,-00.000164600000,   0.72000,
,,,-00.000164400000,   0.68000,
,,,-00.000164200000,   0.64000,
,,,-00.000164000000,   0.72800,
,,,-00.000163800000,   0.72000,
,,,-00.000163600000,   0.68800,
,,,-00.000163400000,   0.71200,
,,,-00.000163200000,   0.72000,
,,,-00.000163000000,   0.70400,
,,,-00.000162800000,   0.69600,
,,,-00.000162600000,   0.70400,
,,,-00.000162400000,   0.72000,
,,,-00.000162200000,   0.70400,
,,,-00.000162000000,   0.70400,
,,,-00.000161800000,   0.72000,
,,,-00.000161600000,   0.72800,
,,,-00.000161400000,   0.72000,
,,,-00.000161200000,   0.73600,
,,,-00.000161000000,   0.72800,
,,,-00.000160800000,   0.72800,
,,,-00.000160600000,   0.72800,
,,,-00.000160400000,   0.72800,
,,,-00.000160200000,   0.73600,
,,,-00.000160000000,   0.72000,
,,,-00.000159800000,   0.73600,
,,,-00.000159600000,   0.73600,
,,,-00.000159400000,   0.72800,
,,,-00.000159200000,   0.72800,
,,,-00.000159000000,   0.73600,
,,,-00.000158800000,   0.72800,
,,,-00.000158600000,   0.72800,
,,,-00.000158400000,   0.72800,
,,,-00.000158200000,   0.72800,
,,,-00.000158000000,   0.72000,
,,,-00.000157800000,   0.72800,
,,,-00.000157600000,   0.72800,
,,,-00.000157400000,   0.72800,
,,,-00.000157200000,   0.72000,
,,,-00.000157000000,   0.73600,
,,,-00.000156800000,   0.72000,
,,,-00.000156600000,   0.74400,
,,,-00.000156400000,   0.77600,
,,,-00.000156200000,   0.72000,
,,,-00.000156000000,   0.70400,
,,,-00.000155800000,   0.74400,
,,,-00.000155600000,   0.73600,
,,,-00.000155400000,   0.72000,
,,,-00.000155200000,   0.72800,
,,,-00.000155000000,   0.75200,
,,,-00.000154800000,   0.72800,
,,,-00.000154600000,   0.71200,
,,,-00.000154400000,   0.72800,
,,,-00.000154200000,   0.75200,
,,,-00.000154000000,   0.72000,
,,,-00.000153800000,   0.72000,
,,,-00.000153600000,   0.73600,
,,,-00.000153400000,   0.76000,
,,,-00.000153200000,   0.73600,
,,,-00.000153000000,   0.72800,
,,,-00.000152800000,   0.76000,
,,,-00.000152600000,   0.74400,
,,,-00.000152400000,   0.72800,
,,,-00.000152200000,   0.74400,
,,,-00.000152000000,   0.76000,
,,,-00.000151800000,   0.76000,
,,,-00.000151600000,   0.75200,
,,,-00.000151400000,   0.75200,
,,,-00.000151200000,   0.76000,
,,,-00.000151000000,   0.75200,
,,,-00.000150800000,   0.76000,
,,,-00.000150600000,   0.76000,
,,,-00.000150400000,   0.75200,
,,,-00.000150200000,   0.76800,
,,,-00.000150000000,   0.75200,
,,,-00.000149800000,   0.76000,
,,,-00.000149600000,   0.75200,
,,,-00.000149400000,   0.75200,
,,,-00.000149200000,   0.76000,
,,,-00.000149000000,   0.75200,
,,,-00.000148800000,   0.76000,
,,,-00.000148600000,   0.76800,
,,,-00.000148400000,   0.76000,
,,,-00.000148200000,   0.76000,
,,,-00.000148000000,   0.76000,
,,,-00.000147800000,   0.76800,
,,,-00.000147600000,   0.75200,
,,,-00.000147400000,   0.75200,
,,,-00.000147200000,   0.76000,
,,,-00.000147000000,   0.76000,
,,,-00.000146800000,   0.76800,
,,,-00.000146600000,   0.76000,
,,,-00.000146400000,   0.73600,
,,,-00.000146200000,   0.74400,
,,,-00.000146000000,   0.77600,
,,,-00.000145800000,   0.75200,
,,,-00.000145600000,   0.73600,
,,,-00.000145400000,   0.75200,
,,,-00.000145200000,   0.77600,
,,,-00.000145000000,   0.75200,
,,,-00.000144800000,   0.70400,
,,,-00.000144600000,   0.77600,
,,,-00.000144400000,   0.79200,
,,,-00.000144200000,   0.74400,
,,,-00.000144000000,   0.75200,
,,,-00.000143800000,   0.76000,
,,,-00.000143600000,   0.76800,
,,,-00.000143400000,   0.73600,
,,,-00.000143200000,   0.75200,
,,,-00.000143000000,   0.77600,
,,,-00.000142800000,   0.76000,
,,,-00.000142600000,   0.76000,
,,,-00.000142400000,   0.75200,
,,,-00.000142200000,   0.75200,
,,,-00.000142000000,   0.76000,
,,,-00.000141800000,   0.76000,
,,,-00.000141600000,   0.76000,
,,,-00.000141400000,   0.74400,
,,,-00.000141200000,   0.76000,
,,,-00.000141000000,   0.76000,
,,,-00.000140800000,   0.76000,
,,,-00.000140600000,   0.75200,
,,,-00.000140400000,   0.76800,
,,,-00.000140200000,   0.76000,
,,,-00.000140000000,   0.75200,
,,,-00.000139800000,   0.76000,
,,,-00.000139600000,   0.75200,
,,,-00.000139400000,   0.76000,
,,,-00.000139200000,   0.75200,
,,,-00.000139000000,   0.75200,
,,,-00.000138800000,   0.75200,
,,,-00.000138600000,   0.76800,
,,,-00.000138400000,   0.76000,
,,,-00.000138200000,   0.75200,
,,,-00.000138000000,   0.75200,
,,,-00.000137800000,   0.76000,
,,,-00.000137600000,   0.76000,
,,,-00.000137400000,   0.75200,
,,,-00.000137200000,   0.75200,
,,,-00.000137000000,   0.78400,
,,,-00.000136800000,   0.74400,
,,,-00.000136600000,   0.72800,
,,,-00.000136400000,   0.76800,
,,,-00.000136200000,   0.76800,
,,,-00.000136000000,   0.74400,
,,,-00.000135800000,   0.75200,
,,,-00.000135600000,   0.77600,
,,,-00.000135400000,   0.75200,
,,,-00.000135200000,   0.72800,
,,,-00.000135000000,   0.75200,
,,,-00.000134800000,   0.76000,
,,,-00.000134600000,   0.76800,
,,,-00.000134400000,   0.73600,
,,,-00.000134200000,   0.76800,
,,,-00.000134000000,   0.78400,
,,,-00.000133800000,   0.76800,
,,,-00.000133600000,   0.72800,
,,,-00.000133400000,   0.76000,
,,,-00.000133200000,   0.76000,
,,,-00.000133000000,   0.74400,
,,,-00.000132800000,   0.76000,
,,,-00.000132600000,   0.77600,
,,,-00.000132400000,   0.76000,
,,,-00.000132200000,   0.77600,
,,,-00.000132000000,   0.78400,
,,,-00.000131800000,   0.77600,
,,,-00.000131600000,   0.77600,
,,,-00.000131400000,   0.79200,
,,,-00.000131200000,   0.77600,
,,,-00.000131000000,   0.79200,
,,,-00.000130800000,   0.78400,
,,,-00.000130600000,   0.77600,
,,,-00.000130400000,   0.79200,
,,,-00.000130200000,   0.77600,
,,,-00.000130000000,   0.77600,
,,,-00.000129800000,   0.79200,
,,,-00.000129600000,   0.77600,
,,,-00.000129400000,   0.77600,
,,,-00.000129200000,   0.77600,
,,,-00.000129000000,   0.78400,
,,,-00.000128800000,   0.79200,
,,,-00.000128600000,   0.78400,
,,,-00.000128400000,   0.78400,
,,,-00.000128200000,   0.77600,
,,,-00.000128000000,   0.79200,
,,,-00.000127800000,   0.77600,
,,,-00.000127600000,   0.77600,
,,,-00.000127400000,   0.80000,
,,,-00.000127200000,   0.78400,
,,,-00.000127000000,   0.78400,
,,,-00.000126800000,   0.77600,
,,,-00.000126600000,   0.80800,
,,,-00.000126400000,   0.76800,
,,,-00.000126200000,   0.74400,
,,,-00.000126000000,   0.78400,
,,,-00.000125800000,   0.82400,
,,,-00.000125600000,   0.78400,
,,,-00.000125400000,   0.79200,
,,,-00.000125200000,   0.80000,
,,,-00.000125000000,   0.82400,
,,,-00.000124800000,   0.77600,
,,,-00.000124600000,   0.72800,
,,,-00.000124400000,   0.80000,
,,,-00.000124200000,   0.79200,
,,,-00.000124000000,   0.76800,
,,,-00.000123800000,   0.79200,
,,,-00.000123600000,   0.80000,
,,,-00.000123400000,   0.78400,
,,,-00.000123200000,   0.77600,
,,,-00.000123000000,   0.79200,
,,,-00.000122800000,   0.79200,
,,,-00.000122600000,   0.79200,
,,,-00.000122400000,   0.80000,
,,,-00.000122200000,   0.80800,
,,,-00.000122000000,   0.81600,
,,,-00.000121800000,   0.80000,
,,,-00.000121600000,   0.80000,
,,,-00.000121400000,   0.81600,
,,,-00.000121200000,   0.80000,
,,,-00.000121000000,   0.80800,
,,,-00.000120800000,   0.80800,
,,,-00.000120600000,   0.81600,
,,,-00.000120400000,   0.80000,
,,,-00.000120200000,   0.80800,
,,,-00.000120000000,   0.80800,
,,,-00.000119800000,   0.80800,
,,,-00.000119600000,   0.80800,
,,,-00.000119400000,   0.80000,
,,,-00.000119200000,   0.80800,
,,,-00.000119000000,   0.80000,
,,,-00.000118800000,   0.80800,
,,,-00.000118600000,   0.80800,
,,,-00.000118400000,   0.80000,
,,,-00.000118200000,   0.80800,
,,,-00.000118000000,   0.80000,
,,,-00.000117800000,   0.80000,
,,,-00.000117600000,   0.81600,
,,,-00.000117400000,   0.79200,
,,,-00.000117200000,   0.76000,
,,,-00.000117000000,   0.81600,
,,,-00.000116800000,   0.84800,
,,,-00.000116600000,   0.80000,
,,,-00.000116400000,   0.79200,
,,,-00.000116200000,   0.82400,
,,,-00.000116000000,   0.81600,
,,,-00.000115800000,   0.78400,
,,,-00.000115600000,   0.80800,
,,,-00.000115400000,   0.83200,
,,,-00.000115200000,   0.80800,
,,,-00.000115000000,   0.80000,
,,,-00.000114800000,   0.80000,
,,,-00.000114600000,   0.82400,
,,,-00.000114400000,   0.79200,
,,,-00.000114200000,   0.76000,
,,,-00.000114000000,   0.80800,
,,,-00.000113800000,   0.83200,
,,,-00.000113600000,   0.80800,
,,,-00.000113400000,   0.76800,
,,,-00.000113200000,   0.82400,
,,,-00.000113000000,   0.81600,
,,,-00.000112800000,   0.82400,
,,,-00.000112600000,   0.83200,
,,,-00.000112400000,   0.82400,
,,,-00.000112200000,   0.84000,
,,,-00.000112000000,   0.82400,
,,,-00.000111800000,   0.83200,
,,,-00.000111600000,   0.83200,
,,,-00.000111400000,   0.83200,
,,,-00.000111200000,   0.83200,
,,,-00.000111000000,   0.82400,
,,,-00.000110800000,   0.82400,
,,,-00.000110600000,   0.84000,
,,,-00.000110400000,   0.83200,
,,,-00.000110200000,   0.83200,
,,,-00.000110000000,   0.83200,
,,,-00.000109800000,   0.82400,
,,,-00.000109600000,   0.82400,
,,,-00.000109400000,   0.82400,
,,,-00.000109200000,   0.82400,
,,,-00.000109000000,   0.83200,
,,,-00.000108800000,   0.83200,
,,,-00.000108600000,   0.83200,
,,,-00.000108400000,   0.83200,
,,,-00.000108200000,   0.83200,
,,,-00.000108000000,   0.83200,
,,,-00.000107800000,   0.82400,
,,,-00.000107600000,   0.81600,
,,,-00.000107400000,   0.81600,
,,,-00.000107200000,   0.84800,
,,,-00.000107000000,   0.84000,
,,,-00.000106800000,   0.77600,
,,,-00.000106600000,   0.84000,
,,,-00.000106400000,   0.84800,
,,,-00.000106200000,   0.84000,
,,,-00.000106000000,   0.80800,
,,,-00.000105800000,   0.84000,
,,,-00.000105600000,   0.84800,
,,,-00.000105400000,   0.81600,
,,,-00.000105200000,   0.76000,
,,,-00.000105000000,   0.84000,
,,,-00.000104800000,   0.84800,
,,,-00.000104600000,   0.82400,
,,,-00.000104400000,   0.82400,
,,,-00.000104200000,   0.85600,
,,,-00.000104000000,   0.84800,
,,,-00.000103800000,   0.79200,
,,,-00.000103600000,   0.83200,
,,,-00.000103400000,   0.84800,
,,,-00.000103200000,   0.81600,
,,,-00.000103000000,   0.82400,
,,,-00.000102800000,   0.83200,
,,,-00.000102600000,   0.83200,
,,,-00.000102400000,   0.85600,
,,,-00.000102200000,   0.85600,
,,,-00.000102000000,   0.84800,
,,,-00.000101800000,   0.84800,
,,,-00.000101600000,   0.86400,
,,,-00.000101400000,   0.85600,
,,,-00.000101200000,   0.84800,
,,,-00.000101000000,   0.85600,
,,,-00.000100800000,   0.85600,
,,,-00.000100600000,   0.84000,
,,,-00.000100400000,   0.84800,
,,,-00.000100200000,   0.85600,
,,,-00.000100000000,   0.85600,
,,,-00.000099800000,   0.84800,
,,,-00.000099600000,   0.85600,
,,,-00.000099400000,   0.86400,
,,,-00.000099200000,   0.84800,
,,,-00.000099000000,   0.86400,
,,,-00.000098800000,   0.85600,
,,,-00.000098600000,   0.85600,
,,,-00.000098400000,   0.84800,
,,,-00.000098200000,   0.85600,
,,,-00.000098000000,   0.84800,
,,,-00.000097800000,   0.84000,
,,,-00.000097600000,   0.85600,
,,,-00.000097400000,   0.92000,
,,,-00.000097200000,   0.85600,
,,,-00.000097000000,   0.80800,
,,,-00.000096800000,   0.87200,
,,,-00.000096600000,   0.86400,
,,,-00.000096400000,   0.84000,
,,,-00.000096200000,   0.84000,
,,,-00.000096000000,   0.87200,
,,,-00.000095800000,   0.86400,
,,,-00.000095600000,   0.85600,
,,,-00.000095400000,   0.84800,
,,,-00.000095200000,   0.87200,
,,,-00.000095000000,   0.86400,
,,,-00.000094800000,   0.83200,
,,,-00.000094600000,   0.86400,
,,,-00.000094400000,   0.88800,
,,,-00.000094200000,   0.87200,
,,,-00.000094000000,   0.85600,
,,,-00.000093800000,   0.85600,
,,,-00.000093600000,   0.87200,
,,,-00.000093400000,   0.85600,
,,,-00.000093200000,   0.85600,
,,,-00.000093000000,   0.86400,
,,,-00.000092800000,   0.85600,
,,,-00.000092600000,   0.86400,
,,,-00.000092400000,   0.87200,
,,,-00.000092200000,   0.84800,
,,,-00.000092000000,   0.85600,
,,,-00.000091800000,   0.86400,
,,,-00.000091600000,   0.84800,
,,,-00.000091400000,   0.85600,
,,,-00.000091200000,   0.85600,
,,,-00.000091000000,   0.85600,
,,,-00.000090800000,   0.85600,
,,,-00.000090600000,   0.85600,
,,,-00.000090400000,   0.85600,
,,,-00.000090200000,   0.85600,
,,,-00.000090000000,   0.84800,
,,,-00.000089800000,   0.85600,
,,,-00.000089600000,   0.85600,
,,,-00.000089400000,   0.84800,
,,,-00.000089200000,   0.86400,
,,,-00.000089000000,   0.87200,
,,,-00.000088800000,   0.84000,
,,,-00.000088600000,   0.85600,
,,,-00.000088400000,   0.86400,
,,,-00.000088200000,   0.85600,
,,,-00.000088000000,   0.84000,
,,,-00.000087800000,   0.87200,
,,,-00.000087600000,   0.86400,
,,,-00.000087400000,   0.84000,
,,,-00.000087200000,   0.84800,
,,,-00.000087000000,   0.88000,
,,,-00.000086800000,   0.84800,
,,,-00.000086600000,   0.84800,
,,,-00.000086400000,   0.85600,
,,,-00.000086200000,   0.87200,
,,,-00.000086000000,   0.84000,
,,,-00.000085800000,   0.82400,
,,,-00.000085600000,   0.87200,
,,,-00.000085400000,   0.89600,
,,,-00.000085200000,   0.84000,
,,,-00.000085000000,   0.84800,
,,,-00.000084800000,   0.87200,
,,,-00.000084600000,   0.85600,
,,,-00.000084400000,   0.84000,
,,,-00.000084200000,   0.85600,
,,,-00.000084000000,   0.87200,
,,,-00.000083800000,   0.85600,
,,,-00.000083600000,   0.85600,
,,,-00.000083400000,   0.87200,
,,,-00.000083200000,   0.86400,
,,,-00.000083000000,   0.87200,
,,,-00.000082800000,   0.88000,
,,,-00.000082600000,   0.89600,
,,,-00.000082400000,   0.88000,
,,,-00.000082200000,   0.88000,
,,,-00.000082000000,   0.87200,
,,,-00.000081800000,   0.88800,
,,,-00.000081600000,   0.88000,
,,,-00.000081400000,   0.88000,
,,,-00.000081200000,   0.87200,
,,,-00.000081000000,   0.88800,
,,,-00.000080800000,   0.87200,
,,,-00.000080600000,   0.88000,
,,,-00.000080400000,   0.88000,
,,,-00.000080200000,   0.88000,
,,,-00.000080000000,   0.88000,
,,,-00.000079800000,   0.88800,
,,,-00.000079600000,   0.88800,
,,,-00.000079400000,   0.88000,
,,,-00.000079200000,   0.88000,
,,,-00.000079000000,   0.88000,
,,,-00.000078800000,   0.87200,
,,,-00.000078600000,   0.88000,
,,,-00.000078400000,   0.87200,
,,,-00.000078200000,   0.88000,
,,,-00.000078000000,   0.90400,
,,,-00.000077800000,   0.85600,
,,,-00.000077600000,   0.85600,
,,,-00.000077400000,   0.89600,
,,,-00.000077200000,   0.89600,
,,,-00.000077000000,   0.88000,
,,,-00.000076800000,   0.88000,
,,,-00.000076600000,   0.88800,
,,,-00.000076400000,   0.87200,
,,,-00.000076200000,   0.86400,
,,,-00.000076000000,   0.88000,
,,,-00.000075800000,   0.89600,
,,,-00.000075600000,   0.88000,
,,,-00.000075400000,   0.85600,
,,,-00.000075200000,   0.88800,
,,,-00.000075000000,   0.90400,
,,,-00.000074800000,   0.88000,
,,,-00.000074600000,   0.82400,
,,,-00.000074400000,   0.89600,
,,,-00.000074200000,   0.89600,
,,,-00.000074000000,   0.85600,
,,,-00.000073800000,   0.88000,
,,,-00.000073600000,   0.89600,
,,,-00.000073400000,   0.88800,
,,,-00.000073200000,   0.90400,
,,,-00.000073000000,   0.90400,
,,,-00.000072800000,   0.91200,
,,,-00.000072600000,   0.91200,
,,,-00.000072400000,   0.89600,
,,,-00.000072200000,   0.90400,
,,,-00.000072000000,   0.92000,
,,,-00.000071800000,   0.90400,
,,,-00.000071600000,   0.91200,
,,,-00.000071400000,   0.90400,
,,,-00.000071200000,   0.90400,
,,,-00.000071000000,   0.91200,
,,,-00.000070800000,   0.90400,
,,,-00.000070600000,   0.90400,
,,,-00.000070400000,   0.90400,
,,,-00.000070200000,   0.89600,
,,,-00.000070000000,   0.90400,
,,,-00.000069800000,   0.90400,
,,,-00.000069600000,   0.91200,
,,,-00.000069400000,   0.92000,
,,,-00.000069200000,   0.90400,
,,,-00.000069000000,   0.89600,
,,,-00.000068800000,   0.91200,
,,,-00.000068600000,   0.91200,
,,,-00.000068400000,   0.92000,
,,,-00.000068200000,   0.90400,
,,,-00.000068000000,   0.90400,
,,,-00.000067800000,   0.90400,
,,,-00.000067600000,   0.92000,
,,,-00.000067400000,   0.89600,
,,,-00.000067200000,   0.88000,
,,,-00.000067000000,   0.91200,
,,,-00.000066800000,   0.94400,
,,,-00.000066600000,   0.91200,
,,,-00.000066400000,   0.89600,
,,,-00.000066200000,   0.92000,
,,,-00.000066000000,   0.95200,
,,,-00.000065800000,   0.88800,
,,,-00.000065600000,   0.87200,
,,,-00.000065400000,   0.91200,
,,,-00.000065200000,   0.92000,
,,,-00.000065000000,   0.89600,
,,,-00.000064800000,   0.90400,
,,,-00.000064600000,   0.92000,
,,,-00.000064400000,   0.92000,
,,,-00.000064200000,   0.88000,
,,,-00.000064000000,   0.91200,
,,,-00.000063800000,   0.92000,
,,,-00.000063600000,   0.92000,
,,,-00.000063400000,   0.92000,
,,,-00.000063200000,   0.92000,
,,,-00.000063000000,   0.92000,
,,,-00.000062800000,   0.93600,
,,,-00.000062600000,   0.93600,
,,,-00.000062400000,   0.92800,
,,,-00.000062200000,   0.92800,
,,,-00.000062000000,   0.93600,
,,,-00.000061800000,   0.93600,
,,,-00.000061600000,   0.92800,
,,,-00.000061400000,   0.92800,
,,,-00.000061200000,   0.93600,
,,,-00.000061000000,   0.92000,
,,,-00.000060800000,   0.93600,
,,,-00.000060600000,   0.92800,
,,,-00.000060400000,   0.92800,
,,,-00.000060200000,   0.92800,
,,,-00.000060000000,   0.93600,
,,,-00.000059800000,   0.92800,
,,,-00.000059600000,   0.92800,
,,,-00.000059400000,   0.93600,
,,,-00.000059200000,   0.92800,
,,,-00.000059000000,   0.91200,
,,,-00.000058800000,   0.92800,
,,,-00.000058600000,   0.92800,
,,,-00.000058400000,   0.92000,
,,,-00.000058200000,   0.88000,
,,,-00.000058000000,   0.94400,
,,,-00.000057800000,   0.98400,
,,,-00.000057600000,   0.92000,
,,,-00.000057400000,   0.92000,
,,,-00.000057200000,   0.94400,
,,,-00.000057000000,   0.93600,
,,,-00.000056800000,   0.91200,
,,,-00.000056600000,   0.92800,
,,,-00.000056400000,   0.93600,
,,,-00.000056200000,   0.93600,
,,,-00.000056000000,   0.92800,
,,,-00.000055800000,   0.92000,
,,,-00.000055600000,   0.95200,
,,,-00.000055400000,   0.92800,
,,,-00.000055200000,   0.90400,
,,,-00.000055000000,   0.93600,
,,,-00.000054800000,   0.95200,
,,,-00.000054600000,   0.93600,
,,,-00.000054400000,   0.90400,
,,,-00.000054200000,   0.93600,
,,,-00.000054000000,   0.93600,
,,,-00.000053800000,   0.94400,
,,,-00.000053600000,   0.94400,
,,,-00.000053400000,   0.96000,
,,,-00.000053200000,   0.94400,
,,,-00.000053000000,   0.96000,
,,,-00.000052800000,   0.96000,
,,,-00.000052600000,   0.94400,
,,,-00.000052400000,   0.95200,
,,,-00.000052200000,   0.96800,
,,,-00.000052000000,   0.94400,
,,,-00.000051800000,   0.96800,
,,,-00.000051600000,   0.94400,
,,,-00.000051400000,   0.95200,
,,,-00.000051200000,   0.95200,
,,,-00.000051000000,   0.94400,
,,,-00.000050800000,   0.95200,
,,,-00.000050600000,   0.96000,
,,,-00.000050400000,   0.95200,
,,,-00.000050200000,   0.95200,
,,,-00.000050000000,   0.95200,
,,,-00.000049800000,   0.95200,
,,,-00.000049600000,   0.95200,
,,,-00.000049400000,   0.96000,
,,,-00.000049200000,   0.95200,
,,,-00.000049000000,   0.95200,
,,,-00.000048800000,   0.95200,
,,,-00.000048600000,   0.93600,
,,,-00.000048400000,   0.94400,
,,,-00.000048200000,   0.95200,
,,,-00.000048000000,   0.96000,
,,,-00.000047800000,   0.91200,
,,,-00.000047600000,   0.95200,
,,,-00.000047400000,   0.97600,
,,,-00.000047200000,   0.96000,
,,,-00.000047000000,   0.92000,
,,,-00.000046800000,   0.95200,
,,,-00.000046600000,   0.96800,
,,,-00.000046400000,   0.93600,
,,,-00.000046200000,   0.88800,
,,,-00.000046000000,   0.96800,
,,,-00.000045800000,   0.97600,
,,,-00.000045600000,   0.95200,
,,,-00.000045400000,   0.94400,
,,,-00.000045200000,   0.96000,
,,,-00.000045000000,   0.95200,
,,,-00.000044800000,   0.92800,
,,,-00.000044600000,   0.96000,
,,,-00.000044400000,   0.96800,
,,,-00.000044200000,   0.95200,
,,,-00.000044000000,   0.96000,
,,,-00.000043800000,   0.96800,
,,,-00.000043600000,   0.97600,
,,,-00.000043400000,   0.96800,
,,,-00.000043200000,   0.97600,
,,,-00.000043000000,   0.98400,
,,,-00.000042800000,   0.99200,
,,,-00.000042600000,   0.97600,
,,,-00.000042400000,   0.98400,
,,,-00.000042200000,   0.99200,
,,,-00.000042000000,   0.97600,
,,,-00.000041800000,   0.97600,
,,,-00.000041600000,   0.97600,
,,,-00.000041400000,   0.98400,
,,,-00.000041200000,   0.96800,
,,,-00.000041000000,   0.97600,
,,,-00.000040800000,   0.97600,
,,,-00.000040600000,   0.97600,
,,,-00.000040400000,   0.97600,
,,,-00.000040200000,   0.97600,
,,,-00.000040000000,   0.96800,
,,,-00.000039800000,   0.96800,
,,,-00.000039600000,   0.99200,
,,,-00.000039400000,   0.98400,
,,,-00.000039200000,   0.97600,
,,,-00.000039000000,   0.97600,
,,,-00.000038800000,   0.96000,
,,,-00.000038600000,   0.98400,
,,,-00.000038400000,   1.03200,
,,,-00.000038200000,   0.96800,
,,,-00.000038000000,   0.93600,
,,,-00.000037800000,   0.99200,
,,,-00.000037600000,   0.99200,
,,,-00.000037400000,   0.96000,
,,,-00.000037200000,   0.96800,
,,,-00.000037000000,   0.99200,
,,,-00.000036800000,   0.97600,
,,,-00.000036600000,   0.96800,
,,,-00.000036400000,   0.98400,
,,,-00.000036200000,   1.00800,
,,,-00.000036000000,   0.96000,
,,,-00.000035800000,   0.96000,
,,,-00.000035600000,   0.98400,
,,,-00.000035400000,   1.02400,
,,,-00.000035200000,   0.98400,
,,,-00.000035000000,   0.96800,
,,,-00.000034800000,   0.99200,
,,,-00.000034600000,   1.00000,
,,,-00.000034400000,   0.97600,
,,,-00.000034200000,   0.99200,
,,,-00.000034000000,   1.00800,
,,,-00.000033800000,   1.00000,
,,,-00.000033600000,   1.00800,
,,,-00.000033400000,   1.01600,
,,,-00.000033200000,   1.00800,
,,,-00.000033000000,   1.01600,
,,,-00.000032800000,   1.00800,
,,,-00.000032600000,   1.00800,
,,,-00.000032400000,   1.00800,
,,,-00.000032200000,   1.00000,
,,,-00.000032000000,   1.00800,
,,,-00.000031800000,   1.00800,
,,,-00.000031600000,   1.00800,
,,,-00.000031400000,   1.01600,
,,,-00.000031200000,   0.99200,
,,,-00.000031000000,   1.00000,
,,,-00.000030800000,   1.00800,
,,,-00.000030600000,   1.00000,
,,,-00.000030400000,   1.00000,
,,,-00.000030200000,   1.00800,
,,,-00.000030000000,   1.00800,
,,,-00.000029800000,   1.00800,
,,,-00.000029600000,   1.01600,
,,,-00.000029400000,   1.00800,
,,,-00.000029200000,   0.99200,
,,,-00.000029000000,   1.00000,
,,,-00.000028800000,   1.01600,
,,,-00.000028600000,   1.00800,
,,,-00.000028400000,   0.99200,
,,,-00.000028200000,   1.00000,
,,,-00.000028000000,   1.03200,
,,,-00.000027800000,   1.00800,
,,,-00.000027600000,   0.98400,
,,,-00.000027400000,   1.00000,
,,,-00.000027200000,   1.03200,
,,,-00.000027000000,   0.99200,
,,,-00.000026800000,   0.96800,
,,,-00.000026600000,   1.02400,
,,,-00.000026400000,   1.05600,
,,,-00.000026200000,   1.00000,
,,,-00.000026000000,   0.98400,
,,,-00.000025800000,   1.01600,
,,,-00.000025600000,   1.01600,
,,,-00.000025400000,   0.99200,
,,,-00.000025200000,   1.00800,
,,,-00.000025000000,   1.02400,
,,,-00.000024800000,   1.01600,
,,,-00.000024600000,   1.00000,
,,,-00.000024400000,   1.00000,
,,,-00.000024200000,   1.00800,
,,,-00.000024000000,   1.00800,
,,,-00.000023800000,   1.00800,
,,,-00.000023600000,   1.00000,
,,,-00.000023400000,   1.00000,
,,,-00.000023200000,   1.00800,
,,,-00.000023000000,   1.01600,
,,,-00.000022800000,   1.00000,
,,,-00.000022600000,   1.00800,
,,,-00.000022400000,   1.00800,
,,,-00.000022200000,   0.99200,
,,,-00.000022000000,   0.99200,
,,,-00.000021800000,   1.00000,
,,,-00.000021600000,   1.00800,
,,,-00.000021400000,   1.00000,
,,,-00.000021200000,   1.00000,
,,,-00.000021000000,   1.00800,
,,,-00.000020800000,   1.00000,
,,,-00.000020600000,   1.00000,
,,,-00.000020400000,   1.00800,
,,,-00.000020200000,   1.00000,
,,,-00.000020000000,   1.00800,
,,,-00.000019800000,   1.01600,
,,,-00.000019600000,   1.00800,
,,,-00.000019400000,   1.00000,
,,,-00.000019200000,   1.00000,
,,,-00.000019000000,   1.02400,
,,,-00.000018800000,   0.98400,
,,,-00.000018600000,   0.96800,
,,,-00.000018400000,   1.01600,
,,,-00.000018200000,   1.03200,
,,,-00.000018000000,   1.00800,
,,,-00.000017800000,   1.00800,
,,,-00.000017600000,   1.02400,
,,,-00.000017400000,   1.00000,
,,,-00.000017200000,   0.99200,
,,,-00.000017000000,   1.00800,
,,,-00.000016800000,   1.01600,
,,,-00.000016600000,   1.01600,
,,,-00.000016400000,   1.00000,
,,,-00.000016200000,   0.99200,
,,,-00.000016000000,   1.02400,
,,,-00.000015800000,   1.00800,
,,,-00.000015600000,   0.97600,
,,,-00.000015400000,   1.00800,
,,,-00.000015200000,   1.02400,
,,,-00.000015000000,   0.99200,
,,,-00.000014800000,   1.00800,
,,,-00.000014600000,   1.05600,
,,,-00.000014400000,   1.06400,
,,,-00.000014200000,   1.05600,
,,,-00.000014000000,   1.05600,
,,,-00.000013800000,   1.04800,
,,,-00.000013600000,   1.03200,
,,,-00.000013400000,   1.03200,
,,,-00.000013200000,   1.04000,
,,,-00.000013000000,   1.03200,
,,,-00.000012800000,   1.04000,
,,,-00.000012600000,   1.04800,
,,,-00.000012400000,   1.03200,
,,,-00.000012200000,   1.03200,
,,,-00.000012000000,   1.03200,
,,,-00.000011800000,   1.03200,
,,,-00.000011600000,   1.03200,
,,,-00.000011400000,   1.02400,
,,,-00.000011200000,   1.02400,
,,,-00.000011000000,   1.04000,
,,,-00.000010800000,   1.03200,
,,,-00.000010600000,   1.04000,
,,,-00.000010400000,   1.03200,
,,,-00.000010200000,   1.03200,
,,,-00.000010000000,   1.03200,
,,,-00.000009800000,   1.04000,
,,,-00.000009600000,   1.03200,
,,,-00.000009400000,   1.04000,
,,,-00.000009200000,   1.04000,
,,,-00.000009000000,   1.02400,
,,,-00.000008800000,   1.02400,
,,,-00.000008600000,   1.04800,
,,,-00.000008400000,   1.02400,
,,,-00.000008200000,   1.00800,
,,,-00.000008000000,   1.03200,
,,,-00.000007800000,   1.06400,
,,,-00.000007600000,   1.03200,
,,,-00.000007400000,   1.01600,
,,,-00.000007200000,   1.03200,
,,,-00.000007000000,   1.06400,
,,,-00.000006800000,   1.02400,
,,,-00.000006600000,   1.00000,
,,,-00.000006400000,   1.04000,
,,,-00.000006200000,   1.04000,
,,,-00.000006000000,   1.00800,
,,,-00.000005800000,   1.04000,
,,,-00.000005600000,   1.04000,
,,,-00.000005400000,   1.03200,
,,,-00.000005200000,   1.02400,
,,,-00.000005000000,   1.04000,
,,,-00.000004800000,   1.04000,
,,,-00.000004600000,   1.03200,
,,,-00.000004400000,   1.04000,
,,,-00.000004200000,   1.05600,
,,,-00.000004000000,   1.05600,
,,,-00.000003800000,   1.04800,
,,,-00.000003600000,   1.04800,
,,,-00.000003400000,   1.06400,
,,,-00.000003200000,   1.06400,
,,,-00.000003000000,   1.04800,
,,,-00.000002800000,   1.06400,
,,,-00.000002600000,   1.05600,
,,,-00.000002400000,   1.05600,
,,,-00.000002200000,   1.05600,
,,,-00.000002000000,   1.04800,
,,,-00.000001800000,   1.05600,
,,,-00.000001600000,   1.05600,
,,,-00.000001400000,   1.05600,
,,,-00.000001200000,   1.04800,
,,,-00.000001000000,   1.06400,
,,,-00.000000800000,   1.05600,
,,,-00.000000600000,   1.06400,
,,,-00.000000400000,   1.04800,
,,,-00.000000200000,   1.05600,
,,,-00.000000000000,   1.04800,
,,,00.000000200000,   1.05600,
,,,00.000000400000,   1.06400,
,,,00.000000600000,   1.04000,
,,,00.000000800000,   1.00800,
,,,00.000001000000,   1.06400,
,,,00.000001200000,   1.11200,
,,,00.000001400000,   1.04000,
,,,00.000001600000,   1.04800,
,,,00.000001800000,   1.07200,
,,,00.000002000000,   1.05600,
,,,00.000002200000,   1.04000,
,,,00.000002400000,   1.05600,
,,,00.000002600000,   1.07200,
,,,00.000002800000,   1.05600,
,,,00.000003000000,   1.05600,
,,,00.000003200000,   1.05600,
,,,00.000003400000,   1.08800,
,,,00.000003600000,   1.04800,
,,,00.000003800000,   1.02400,
,,,00.000004000000,   1.07200,
,,,00.000004200000,   1.08800,
,,,00.000004400000,   1.05600,
,,,00.000004600000,   1.04800,
,,,00.000004800000,   1.08000,
,,,00.000005000000,   1.06400,
,,,00.000005200000,   1.05600,
,,,00.000005400000,   1.07200,
,,,00.000005600000,   1.08800,
,,,00.000005800000,   1.08800,
,,,00.000006000000,   1.08000,
,,,00.000006200000,   1.08000,
,,,00.000006400000,   1.07200,
,,,00.000006600000,   1.08800,
,,,00.000006800000,   1.07200,
,,,00.000007000000,   1.08800,
,,,00.000007200000,   1.08800,
,,,00.000007400000,   1.07200,
,,,00.000007600000,   1.08000,
,,,00.000007800000,   1.07200,
,,,00.000008000000,   1.08000,
,,,00.000008200000,   1.08800,
,,,00.000008400000,   1.08000,
,,,00.000008600000,   1.08000,
,,,00.000008800000,   1.08800,
,,,00.000009000000,   1.07200,
,,,00.000009200000,   1.08000,
,,,00.000009400000,   1.08000,
,,,00.000009600000,   1.08000,
,,,00.000009800000,   1.08000,
,,,00.000010000000,   1.08800,
,,,00.000010200000,   1.08000,
,,,00.000010400000,   1.06400,
,,,00.000010600000,   1.08800,
,,,00.000010800000,   1.09600,
,,,00.000011000000,   1.08800,
,,,00.000011200000,   1.03200,
,,,00.000011400000,   1.08000,
,,,00.000011600000,   1.11200,
,,,00.000011800000,   1.06400,
,,,00.000012000000,   1.05600,
,,,00.000012200000,   1.08800,
,,,00.000012400000,   1.08800,
,,,00.000012600000,   1.06400,
,,,00.000012800000,   1.00000,
,,,00.000013000000,   1.10400,
,,,00.000013200000,   1.11200,
,,,00.000013400000,   1.07200,
,,,00.000013600000,   1.08000,
,,,00.000013800000,   1.09600,
,,,00.000014000000,   1.08000,
,,,00.000014200000,   1.05600,
,,,00.000014400000,   1.08000,
,,,00.000014600000,   1.09600,
,,,00.000014800000,   1.08800,
,,,00.000015000000,   1.07200,
,,,00.000015200000,   1.08000,
,,,00.000015400000,   1.08800,
,,,00.000015600000,   1.09600,
,,,00.000015800000,   1.09600,
,,,00.000016000000,   1.09600,
,,,00.000016200000,   1.09600,
,,,00.000016400000,   1.11200,
,,,00.000016600000,   1.11200,
,,,00.000016800000,   1.09600,
,,,00.000017000000,   1.11200,
,,,00.000017200000,   1.10400,
,,,00.000017400000,   1.10400,
,,,00.000017600000,   1.11200,
,,,00.000017800000,   1.09600,
,,,00.000018000000,   1.11200,
,,,00.000018200000,   1.09600,
,,,00.000018400000,   1.09600,
,,,00.000018600000,   1.10400,
,,,00.000018800000,   1.09600,
,,,00.000019000000,   1.09600,
,,,00.000019200000,   1.10400,
,,,00.000019400000,   1.10400,
,,,00.000019600000,   1.11200,
,,,00.000019800000,   1.11200,
,,,00.000020000000,   1.09600,
,,,00.000020200000,   1.08800,
,,,00.000020400000,   1.10400,
,,,00.000020600000,   1.14400,
,,,00.000020800000,   1.09600,
,,,00.000021000000,   1.04800,
,,,00.000021200000,   1.12000,
,,,00.000021400000,   1.12800,
,,,00.000021600000,   1.08000,
,,,00.000021800000,   1.10400,
,,,00.000022000000,   1.11200,
,,,00.000022200000,   1.11200,
,,,00.000022400000,   1.09600,
,,,00.000022600000,   1.08800,
,,,00.000022800000,   1.12000,
,,,00.000023000000,   1.10400,
,,,00.000023200000,   1.08000,
,,,00.000023400000,   1.10400,
,,,00.000023600000,   1.13600,
,,,00.000023800000,   1.10400,
,,,00.000024000000,   1.08800,
,,,00.000024200000,   1.10400,
,,,00.000024400000,   1.12000,
,,,00.000024600000,   1.11200,
,,,00.000024800000,   1.11200,
,,,00.000025000000,   1.12000,
,,,00.000025200000,   1.12000,
,,,00.000025400000,   1.13600,
,,,00.000025600000,   1.13600,
,,,00.000025800000,   1.13600,
,,,00.000026000000,   1.12800,
,,,00.000026200000,   1.12800,
,,,00.000026400000,   1.13600,
,,,00.000026600000,   1.12800,
,,,00.000026800000,   1.12800,
,,,00.000027000000,   1.13600,
,,,00.000027200000,   1.12800,
,,,00.000027400000,   1.13600,
,,,00.000027600000,   1.12800,
,,,00.000027800000,   1.12800,
,,,00.000028000000,   1.14400,
,,,00.000028200000,   1.11200,
,,,00.000028400000,   1.12800,
,,,00.000028600000,   1.13600,
,,,00.000028800000,   1.12800,
,,,00.000029000000,   1.12800,
,,,00.000029200000,   1.12800,
,,,00.000029400000,   1.12800,
,,,00.000029600000,   1.14400,
,,,00.000029800000,   1.13600,
,,,00.000030000000,   1.11200,
,,,00.000030200000,   1.13600,
,,,00.000030400000,   1.14400,
,,,00.000030600000,   1.11200,
,,,00.000030800000,   1.12000,
,,,00.000031000000,   1.15200,
,,,00.000031200000,   1.13600,
,,,00.000031400000,   1.08000,
,,,00.000031600000,   1.13600,
,,,00.000031800000,   1.15200,
,,,00.000032000000,   1.12800,
,,,00.000032200000,   1.09600,
,,,00.000032400000,   1.13600,
,,,00.000032600000,   1.16800,
,,,00.000032800000,   1.12800,
,,,00.000033000000,   1.11200,
,,,00.000033200000,   1.13600,
,,,00.000033400000,   1.13600,
,,,00.000033600000,   1.10400,
,,,00.000033800000,   1.12800,
,,,00.000034000000,   1.15200,
,,,00.000034200000,   1.12800,
,,,00.000034400000,   1.13600,
,,,00.000034600000,   1.16000,
,,,00.000034800000,   1.15200,
,,,00.000035000000,   1.15200,
,,,00.000035200000,   1.15200,
,,,00.000035400000,   1.15200,
,,,00.000035600000,   1.15200,
,,,00.000035800000,   1.15200,
,,,00.000036000000,   1.14400,
,,,00.000036200000,   1.16000,
,,,00.000036400000,   1.16800,
,,,00.000036600000,   1.14400,
,,,00.000036800000,   1.15200,
,,,00.000037000000,   1.16800,
,,,00.000037200000,   1.14400,
,,,00.000037400000,   1.16000,
,,,00.000037600000,   1.15200,
,,,00.000037800000,   1.16000,
,,,00.000038000000,   1.14400,
,,,00.000038200000,   1.16000,
,,,00.000038400000,   1.16000,
,,,00.000038600000,   1.15200,
,,,00.000038800000,   1.15200,
,,,00.000039000000,   1.15200,
,,,00.000039200000,   1.15200,
,,,00.000039400000,   1.16000,
,,,00.000039600000,   1.15200,
,,,00.000039800000,   1.14400,
,,,00.000040000000,   1.17600,
,,,00.000040200000,   1.14400,
,,,00.000040400000,   1.11200,
,,,00.000040600000,   1.16000,
,,,00.000040800000,   1.18400,
,,,00.000041000000,   1.15200,
,,,00.000041200000,   1.16000,
,,,00.000041400000,   1.17600,
,,,00.000041600000,   1.15200,
,,,00.000041800000,   1.15200,
,,,00.000042000000,   1.15200,
,,,00.000042200000,   1.17600,
,,,00.000042400000,   1.16000,
,,,00.000042600000,   1.12800,
,,,00.000042800000,   1.16000,
,,,00.000043000000,   1.19200,
,,,00.000043200000,   1.15200,
,,,00.000043400000,   1.12000,
,,,00.000043600000,   1.16000,
,,,00.000043800000,   1.18400,
,,,00.000044000000,   1.12800,
,,,00.000044200000,   1.15200,
,,,00.000044400000,   1.16800,
,,,00.000044600000,   1.15200,
,,,00.000044800000,   1.16000,
,,,00.000045000000,   1.16800,
,,,00.000045200000,   1.18400,
,,,00.000045400000,   1.18400,
,,,00.000045600000,   1.17600,
,,,00.000045800000,   1.17600,
,,,00.000046000000,   1.17600,
,,,00.000046200000,   1.18400,
,,,00.000046400000,   1.17600,
,,,00.000046600000,   1.18400,
,,,00.000046800000,   1.19200,
,,,00.000047000000,   1.18400,
,,,00.000047200000,   1.19200,
,,,00.000047400000,   1.17600,
,,,00.000047600000,   1.16800,
,,,00.000047800000,   1.19200,
,,,00.000048000000,   1.17600,
,,,00.000048200000,   1.17600,
,,,00.000048400000,   1.18400,
,,,00.000048600000,   1.17600,
,,,00.000048800000,   1.18400,
,,,00.000049000000,   1.18400,
,,,00.000049200000,   1.18400,
,,,00.000049400000,   1.19200,
,,,00.000049600000,   1.19200,
,,,00.000049800000,   1.17600,
,,,00.000050000000,   1.17600,
,,,00.000050200000,   1.18400,
,,,00.000050400000,   1.19200,
,,,00.000050600000,   1.16800,
,,,00.000050800000,   1.16000,
,,,00.000051000000,   1.17600,
,,,00.000051200000,   1.22400,
,,,00.000051400000,   1.17600,
,,,00.000051600000,   1.16800,
,,,00.000051800000,   1.19200,
,,,00.000052000000,   1.20800,
,,,00.000052200000,   1.15200,
,,,00.000052400000,   1.13600,
,,,00.000052600000,   1.19200,
,,,00.000052800000,   1.20000,
,,,00.000053000000,   1.16800,
,,,00.000053200000,   1.16800,
,,,00.000053400000,   1.19200,
,,,00.000053600000,   1.18400,
,,,00.000053800000,   1.15200,
,,,00.000054000000,   1.18400,
,,,00.000054200000,   1.18400,
,,,00.000054400000,   1.18400,
,,,00.000054600000,   1.18400,
,,,00.000054800000,   1.17600,
,,,00.000055000000,   1.18400,
,,,00.000055200000,   1.18400,
,,,00.000055400000,   1.16800,
,,,00.000055600000,   1.17600,
,,,00.000055800000,   1.17600,
,,,00.000056000000,   1.18400,
,,,00.000056200000,   1.18400,
,,,00.000056400000,   1.17600,
,,,00.000056600000,   1.17600,
,,,00.000056800000,   1.18400,
,,,00.000057000000,   1.19200,
,,,00.000057200000,   1.17600,
,,,00.000057400000,   1.18400,
,,,00.000057600000,   1.18400,
,,,00.000057800000,   1.17600,
,,,00.000058000000,   1.17600,
,,,00.000058200000,   1.17600,
,,,00.000058400000,   1.18400,
,,,00.000058600000,   1.17600,
,,,00.000058800000,   1.17600,
,,,00.000059000000,   1.16800,
,,,00.000059200000,   1.17600,
,,,00.000059400000,   1.19200,
,,,00.000059600000,   1.17600,
,,,00.000059800000,   1.13600,
,,,00.000060000000,   1.20000,
,,,00.000060200000,   1.23200,
,,,00.000060400000,   1.16800,
,,,00.000060600000,   1.16800,
,,,00.000060800000,   1.19200,
,,,00.000061000000,   1.19200,
,,,00.000061200000,   1.16000,
,,,00.000061400000,   1.17600,
,,,00.000061600000,   1.20000,
,,,00.000061800000,   1.18400,
,,,00.000062000000,   1.18400,
,,,00.000062200000,   1.17600,
,,,00.000062400000,   1.20800,
,,,00.000062600000,   1.17600,
,,,00.000062800000,   1.16000,
,,,00.000063000000,   1.18400,
,,,00.000063200000,   1.20800,
,,,00.000063400000,   1.19200,
,,,00.000063600000,   1.16000,
,,,00.000063800000,   1.19200,
,,,00.000064000000,   1.19200,
,,,00.000064200000,   1.20000,
,,,00.000064400000,   1.20000,
,,,00.000064600000,   1.20000,
,,,00.000064800000,   1.20000,
,,,00.000065000000,   1.21600,
,,,00.000065200000,   1.20000,
,,,00.000065400000,   1.20800,
,,,00.000065600000,   1.20000,
,,,00.000065800000,   1.20800,
,,,00.000066000000,   1.20800,
,,,00.000066200000,   1.19200,
,,,00.000066400000,   1.20000,
,,,00.000066600000,   1.21600,
,,,00.000066800000,   1.20800,
,,,00.000067000000,   1.20000,
,,,00.000067200000,   1.20000,
,,,00.000067400000,   1.20000,
,,,00.000067600000,   1.21600,
,,,00.000067800000,   1.19200,
,,,00.000068000000,   1.20800,
,,,00.000068200000,   1.20000,
,,,00.000068400000,   1.20000,
,,,00.000068600000,   1.20800,
,,,00.000068800000,   1.20000,
,,,00.000069000000,   1.20000,
,,,00.000069200000,   1.20800,
,,,00.000069400000,   1.20000,
,,,00.000069600000,   1.19200,
,,,00.000069800000,   1.21600,
,,,00.000070000000,   1.22400,
,,,00.000070200000,   1.16000,
,,,00.000070400000,   1.20000,
,,,00.000070600000,   1.21600,
,,,00.000070800000,   1.20000,
,,,00.000071000000,   1.17600,
,,,00.000071200000,   1.20000,
,,,00.000071400000,   1.22400,
,,,00.000071600000,   1.20000,
,,,00.000071800000,   1.12800,
,,,00.000072000000,   1.21600,
,,,00.000072200000,   1.23200,
,,,00.000072400000,   1.20000,
,,,00.000072600000,   1.19200,
,,,00.000072800000,   1.21600,
,,,00.000073000000,   1.20800,
,,,00.000073200000,   1.20000,
,,,00.000073400000,   1.20000,
,,,00.000073600000,   1.22400,
,,,00.000073800000,   1.20800,
,,,00.000074000000,   1.20800,
,,,00.000074200000,   1.22400,
,,,00.000074400000,   1.21600,
,,,00.000074600000,   1.22400,
,,,00.000074800000,   1.23200,
,,,00.000075000000,   1.22400,
,,,00.000075200000,   1.22400,
,,,00.000075400000,   1.22400,
,,,00.000075600000,   1.22400,
,,,00.000075800000,   1.24000,
,,,00.000076000000,   1.22400,
,,,00.000076200000,   1.22400,
,,,00.000076400000,   1.22400,
,,,00.000076600000,   1.23200,
,,,00.000076800000,   1.22400,
,,,00.000077000000,   1.22400,
,,,00.000077200000,   1.22400,
,,,00.000077400000,   1.22400,
,,,00.000077600000,   1.22400,
,,,00.000077800000,   1.23200,
,,,00.000078000000,   1.22400,
,,,00.000078200000,   1.23200,
,,,00.000078400000,   1.23200,
,,,00.000078600000,   1.22400,
,,,00.000078800000,   1.22400,
,,,00.000079000000,   1.23200,
,,,00.000079200000,   1.22400,
,,,00.000079400000,   1.23200,
,,,00.000079600000,   1.26400,
,,,00.000079800000,   1.22400,
,,,00.000080000000,   1.15200,
,,,00.000080200000,   1.23200,
,,,00.000080400000,   1.24800,
,,,00.000080600000,   1.20000,
,,,00.000080800000,   1.24000,
,,,00.000081000000,   1.24800,
,,,00.000081200000,   1.23200,
,,,00.000081400000,   1.20800,
,,,00.000081600000,   1.22400,
,,,00.000081800000,   1.24000,
,,,00.000082000000,   1.22400,
,,,00.000082200000,   1.20000,
,,,00.000082400000,   1.24000,
,,,00.000082600000,   1.26400,
,,,00.000082800000,   1.23200,
,,,00.000083000000,   1.20800,
,,,00.000083200000,   1.24800,
,,,00.000083400000,   1.24800,
,,,00.000083600000,   1.23200,
,,,00.000083800000,   1.24000,
,,,00.000084000000,   1.25600,
,,,00.000084200000,   1.25600,
,,,00.000084400000,   1.25600,
,,,00.000084600000,   1.26400,
,,,00.000084800000,   1.25600,
,,,00.000085000000,   1.26400,
,,,00.000085200000,   1.25600,
,,,00.000085400000,   1.25600,
,,,00.000085600000,   1.25600,
,,,00.000085800000,   1.24800,
,,,00.000086000000,   1.25600,
,,,00.000086200000,   1.25600,
,,,00.000086400000,   1.26400,
,,,00.000086600000,   1.25600,
,,,00.000086800000,   1.25600,
,,,00.000087000000,   1.25600,
,,,00.000087200000,   1.24800,
,,,00.000087400000,   1.25600,
,,,00.000087600000,   1.24800,
,,,00.000087800000,   1.24800,
,,,00.000088000000,   1.26400,
,,,00.000088200000,   1.25600,
,,,00.000088400000,   1.26400,
,,,00.000088600000,   1.25600,
,,,00.000088800000,   1.24800,
,,,00.000089000000,   1.25600,
,,,00.000089200000,   1.27200,
,,,00.000089400000,   1.26400,
,,,00.000089600000,   1.24800,
,,,00.000089800000,   1.25600,
,,,00.000090000000,   1.27200,
,,,00.000090200000,   1.25600,
,,,00.000090400000,   1.21600,
,,,00.000090600000,   1.26400,
,,,00.000090800000,   1.28800,
,,,00.000091000000,   1.25600,
,,,00.000091200000,   1.24000,
,,,00.000091400000,   1.26400,
,,,00.000091600000,   1.30400,
,,,00.000091800000,   1.24000,
,,,00.000092000000,   1.22400,
,,,00.000092200000,   1.26400,
,,,00.000092400000,   1.27200,
,,,00.000092600000,   1.23200,
,,,00.000092800000,   1.24800,
,,,00.000093000000,   1.27200,
,,,00.000093200000,   1.25600,
,,,00.000093400000,   1.25600,
,,,00.000093600000,   1.27200,
,,,00.000093800000,   1.28000,
,,,00.000094000000,   1.28000,
,,,00.000094200000,   1.28000,
,,,00.000094400000,   1.27200,
,,,00.000094600000,   1.28000,
,,,00.000094800000,   1.28800,
,,,00.000095000000,   1.27200,
,,,00.000095200000,   1.27200,
,,,00.000095400000,   1.28000,
,,,00.000095600000,   1.28800,
,,,00.000095800000,   1.28000,
,,,00.000096000000,   1.27200,
,,,00.000096200000,   1.28000,
,,,00.000096400000,   1.29600,
,,,00.000096600000,   1.28000,
,,,00.000096800000,   1.28000,
,,,00.000097000000,   1.28000,
,,,00.000097200000,   1.28000,
,,,00.000097400000,   1.27200,
,,,00.000097600000,   1.28000,
,,,00.000097800000,   1.28000,
,,,00.000098000000,   1.28000,
,,,00.000098200000,   1.28000,
,,,00.000098400000,   1.28000,
,,,00.000098600000,   1.27200,
,,,00.000098800000,   1.26400,
,,,00.000099000000,   1.30400,
,,,00.000099200000,   1.26400,
,,,00.000099400000,   1.23200,
,,,00.000099600000,   1.28800,
,,,00.000099800000,   1.31200,
,,,00.000100000000,   1.28000,
,,,00.000100200000,   1.27200,
,,,00.000100400000,   1.29600,
,,,00.000100600000,   1.29600,
,,,00.000100800000,   1.24000,
,,,00.000101000000,   1.28800,
,,,00.000101200000,   1.30400,
,,,00.000101400000,   1.29600,
,,,00.000101600000,   1.26400,
,,,00.000101800000,   1.26400,
,,,00.000102000000,   1.31200,
,,,00.000102200000,   1.29600,
,,,00.000102400000,   1.23200,
,,,00.000102600000,   1.28000,
,,,00.000102800000,   1.30400,
,,,00.000103000000,   1.28000,
,,,00.000103200000,   1.28800,
,,,00.000103400000,   1.28000,
,,,00.000103600000,   1.28000,
,,,00.000103800000,   1.28800,
,,,00.000104000000,   1.29600,
,,,00.000104200000,   1.29600,
,,,00.000104400000,   1.30400,
,,,00.000104600000,   1.31200,
,,,00.000104800000,   1.31200,
,,,00.000105000000,   1.30400,
,,,00.000105200000,   1.30400,
,,,00.000105400000,   1.30400,
,,,00.000105600000,   1.31200,
,,,00.000105800000,   1.29600,
,,,00.000106000000,   1.30400,
,,,00.000106200000,   1.31200,
,,,00.000106400000,   1.30400,
,,,00.000106600000,   1.30400,
,,,00.000106800000,   1.30400,
,,,00.000107000000,   1.30400,
,,,00.000107200000,   1.32000,
,,,00.000107400000,   1.29600,
,,,00.000107600000,   1.29600,
,,,00.000107800000,   1.32000,
,,,00.000108000000,   1.31200,
,,,00.000108200000,   1.29600,
,,,00.000108400000,   1.30400,
,,,00.000108600000,   1.31200,
,,,00.000108800000,   1.31200,
,,,00.000109000000,   1.30400,
,,,00.000109200000,   1.30400,
,,,00.000109400000,   1.32000,
,,,00.000109600000,   1.31200,
,,,00.000109800000,   1.28800,
,,,00.000110000000,   1.30400,
,,,00.000110200000,   1.33600,
,,,00.000110400000,   1.31200,
,,,00.000110600000,   1.29600,
,,,00.000110800000,   1.30400,
,,,00.000111000000,   1.33600,
,,,00.000111200000,   1.29600,
,,,00.000111400000,   1.24000,
,,,00.000111600000,   1.32000,
,,,00.000111800000,   1.32000,
,,,00.000112000000,   1.29600,
,,,00.000112200000,   1.30400,
,,,00.000112400000,   1.32800,
,,,00.000112600000,   1.31200,
,,,00.000112800000,   1.26400,
,,,00.000113000000,   1.31200,
,,,00.000113200000,   1.32800,
,,,00.000113400000,   1.32000,
,,,00.000113600000,   1.32000,
,,,00.000113800000,   1.33600,
,,,00.000114000000,   1.32800,
,,,00.000114200000,   1.32800,
,,,00.000114400000,   1.32000,
,,,00.000114600000,   1.32800,
,,,00.000114800000,   1.32000,
,,,00.000115000000,   1.32000,
,,,00.000115200000,   1.32800,
,,,00.000115400000,   1.33600,
,,,00.000115600000,   1.32800,
,,,00.000115800000,   1.32800,
,,,00.000116000000,   1.33600,
,,,00.000116200000,   1.32800,
,,,00.000116400000,   1.32800,
,,,00.000116600000,   1.32000,
,,,00.000116800000,   1.32800,
,,,00.000117000000,   1.33600,
,,,00.000117200000,   1.32800,
,,,00.000117400000,   1.32000,
,,,00.000117600000,   1.32800,
,,,00.000117800000,   1.32800,
,,,00.000118000000,   1.32000,
,,,00.000118200000,   1.32800,
,,,00.000118400000,   1.34400,
,,,00.000118600000,   1.32800,
,,,00.000118800000,   1.29600,
,,,00.000119000000,   1.35200,
,,,00.000119200000,   1.36800,
,,,00.000119400000,   1.31200,
,,,00.000119600000,   1.30400,
,,,00.000119800000,   1.33600,
,,,00.000120000000,   1.34400,
,,,00.000120200000,   1.32000,
,,,00.000120400000,   1.32000,
,,,00.000120600000,   1.35200,
,,,00.000120800000,   1.33600,
,,,00.000121000000,   1.33600,
,,,00.000121200000,   1.32800,
,,,00.000121400000,   1.34400,
,,,00.000121600000,   1.32000,
,,,00.000121800000,   1.31200,
,,,00.000122000000,   1.32800,
,,,00.000122200000,   1.36800,
,,,00.000122400000,   1.32000,
,,,00.000122600000,   1.32000,
,,,00.000122800000,   1.35200,
,,,00.000123000000,   1.33600,
,,,00.000123200000,   1.33600,
,,,00.000123400000,   1.33600,
,,,00.000123600000,   1.36000,
,,,00.000123800000,   1.34400,
,,,00.000124000000,   1.34400,
,,,00.000124200000,   1.34400,
,,,00.000124400000,   1.35200,
,,,00.000124600000,   1.35200,
,,,00.000124800000,   1.35200,
,,,00.000125000000,   1.34400,
,,,00.000125200000,   1.36000,
,,,00.000125400000,   1.35200,
,,,00.000125600000,   1.36000,
,,,00.000125800000,   1.34400,
,,,00.000126000000,   1.35200,
,,,00.000126200000,   1.35200,
,,,00.000126400000,   1.35200,
,,,00.000126600000,   1.35200,
,,,00.000126800000,   1.35200,
,,,00.000127000000,   1.36800,
,,,00.000127200000,   1.34400,
,,,00.000127400000,   1.35200,
,,,00.000127600000,   1.35200,
,,,00.000127800000,   1.35200,
,,,00.000128000000,   1.35200,
,,,00.000128200000,   1.36000,
,,,00.000128400000,   1.33600,
,,,00.000128600000,   1.35200,
,,,00.000128800000,   1.36800,
,,,00.000129000000,   1.36000,
,,,00.000129200000,   1.32000,
,,,00.000129400000,   1.36000,
,,,00.000129600000,   1.37600,
,,,00.000129800000,   1.33600,
,,,00.000130000000,   1.33600,
,,,00.000130200000,   1.35200,
,,,00.000130400000,   1.37600,
,,,00.000130600000,   1.34400,
,,,00.000130800000,   1.28000,
,,,00.000131000000,   1.36800,
,,,00.000131200000,   1.40000,
,,,00.000131400000,   1.34400,
,,,00.000131600000,   1.33600,
,,,00.000131800000,   1.36800,
,,,00.000132000000,   1.36000,
,,,00.000132200000,   1.33600,
,,,00.000132400000,   1.35200,
,,,00.000132600000,   1.37600,
,,,00.000132800000,   1.36000,
,,,00.000133000000,   1.36800,
,,,00.000133200000,   1.37600,
,,,00.000133400000,   1.37600,
,,,00.000133600000,   1.38400,
,,,00.000133800000,   1.37600,
,,,00.000134000000,   1.37600,
,,,00.000134200000,   1.36800,
,,,00.000134400000,   1.38400,
,,,00.000134600000,   1.36800,
,,,00.000134800000,   1.37600,
,,,00.000135000000,   1.37600,
,,,00.000135200000,   1.38400,
,,,00.000135400000,   1.39200,
,,,00.000135600000,   1.37600,
,,,00.000135800000,   1.38400,
,,,00.000136000000,   1.38400,
,,,00.000136200000,   1.38400,
,,,00.000136400000,   1.37600,
,,,00.000136600000,   1.37600,
,,,00.000136800000,   1.38400,
,,,00.000137000000,   1.37600,
,,,00.000137200000,   1.37600,
,,,00.000137400000,   1.37600,
,,,00.000137600000,   1.38400,
,,,00.000137800000,   1.39200,
,,,00.000138000000,   1.38400,
,,,00.000138200000,   1.36000,
,,,00.000138400000,   1.39200,
,,,00.000138600000,   1.42400,
,,,00.000138800000,   1.36800,
,,,00.000139000000,   1.30400,
,,,00.000139200000,   1.38400,
,,,00.000139400000,   1.39200,
,,,00.000139600000,   1.35200,
,,,00.000139800000,   1.36800,
,,,00.000140000000,   1.39200,
,,,00.000140200000,   1.39200,
,,,00.000140400000,   1.37600,
,,,00.000140600000,   1.37600,
,,,00.000140800000,   1.40000,
,,,00.000141000000,   1.39200,
,,,00.000141200000,   1.35200,
,,,00.000141400000,   1.36800,
,,,00.000141600000,   1.40000,
,,,00.000141800000,   1.39200,
,,,00.000142000000,   1.36800,
,,,00.000142200000,   1.37600,
,,,00.000142400000,   1.40800,
,,,00.000142600000,   1.38400,
,,,00.000142800000,   1.37600,
,,,00.000143000000,   1.37600,
,,,00.000143200000,   1.37600,
,,,00.000143400000,   1.38400,
,,,00.000143600000,   1.37600,
,,,00.000143800000,   1.36800,
,,,00.000144000000,   1.36800,
,,,00.000144200000,   1.38400,
,,,00.000144400000,   1.38400,
,,,00.000144600000,   1.38400,
,,,00.000144800000,   1.37600,
,,,00.000145000000,   1.37600,
,,,00.000145200000,   1.38400,
,,,00.000145400000,   1.38400,
,,,00.000145600000,   1.37600,
,,,00.000145800000,   1.38400,
,,,00.000146000000,   1.38400,
,,,00.000146200000,   1.38400,
,,,00.000146400000,   1.38400,
,,,00.000146600000,   1.37600,
,,,00.000146800000,   1.38400,
,,,00.000147000000,   1.36800,
,,,00.000147200000,   1.36800,
,,,00.000147400000,   1.38400,
,,,00.000147600000,   1.38400,
,,,00.000147800000,   1.37600,
,,,00.000148000000,   1.36800,
,,,00.000148200000,   1.40000,
,,,00.000148400000,   1.39200,
,,,00.000148600000,   1.38400,
,,,00.000148800000,   1.36000,
,,,00.000149000000,   1.40000,
,,,00.000149200000,   1.38400,
,,,00.000149400000,   1.34400,
,,,00.000149600000,   1.37600,
,,,00.000149800000,   1.41600,
,,,00.000150000000,   1.37600,
,,,00.000150200000,   1.36800,
,,,00.000150400000,   1.39200,
,,,00.000150600000,   1.43200,
,,,00.000150800000,   1.36800,
,,,00.000151000000,   1.34400,
,,,00.000151200000,   1.37600,
,,,00.000151400000,   1.37600,
,,,00.000151600000,   1.36800,
,,,00.000151800000,   1.39200,
,,,00.000152000000,   1.39200,
,,,00.000152200000,   1.38400,
,,,00.000152400000,   1.38400,
,,,00.000152600000,   1.40000,
,,,00.000152800000,   1.40000,
,,,00.000153000000,   1.40000,
,,,00.000153200000,   1.40000,
,,,00.000153400000,   1.40800,
,,,00.000153600000,   1.40000,
,,,00.000153800000,   1.40000,
,,,00.000154000000,   1.40000,
,,,00.000154200000,   1.40000,
,,,00.000154400000,   1.40000,
,,,00.000154600000,   1.40000,
,,,00.000154800000,   1.40000,
,,,00.000155000000,   1.40800,
,,,00.000155200000,   1.40800,
,,,00.000155400000,   1.40800,
,,,00.000155600000,   1.40800,
,,,00.000155800000,   1.40800,
,,,00.000156000000,   1.40000,
,,,00.000156200000,   1.40000,
,,,00.000156400000,   1.39200,
,,,00.000156600000,   1.40800,
,,,00.000156800000,   1.40000,
,,,00.000157000000,   1.40000,
,,,00.000157200000,   1.41600,
,,,00.000157400000,   1.40800,
,,,00.000157600000,   1.40000,
,,,00.000157800000,   1.40000,
,,,00.000158000000,   1.41600,
,,,00.000158200000,   1.39200,
,,,00.000158400000,   1.36800,
,,,00.000158600000,   1.41600,
,,,00.000158800000,   1.43200,
,,,00.000159000000,   1.40800,
,,,00.000159200000,   1.39200,
,,,00.000159400000,   1.41600,
,,,00.000159600000,   1.41600,
,,,00.000159800000,   1.38400,
,,,00.000160000000,   1.40800,
,,,00.000160200000,   1.42400,
,,,00.000160400000,   1.40800,
,,,00.000160600000,   1.38400,
,,,00.000160800000,   1.40000,
,,,00.000161000000,   1.43200,
,,,00.000161200000,   1.40000,
,,,00.000161400000,   1.36800,
,,,00.000161600000,   1.40800,
,,,00.000161800000,   1.43200,
,,,00.000162000000,   1.39200,
,,,00.000162200000,   1.40000,
,,,00.000162400000,   1.41600,
,,,00.000162600000,   1.40800,
,,,00.000162800000,   1.40800,
,,,00.000163000000,   1.41600,
,,,00.000163200000,   1.43200,
,,,00.000163400000,   1.42400,
,,,00.000163600000,   1.41600,
,,,00.000163800000,   1.42400,
,,,00.000164000000,   1.44000,
,,,00.000164200000,   1.43200,
,,,00.000164400000,   1.43200,
,,,00.000164600000,   1.42400,
,,,00.000164800000,   1.44000,
,,,00.000165000000,   1.44000,
,,,00.000165200000,   1.42400,
,,,00.000165400000,   1.43200,
,,,00.000165600000,   1.44000,
,,,00.000165800000,   1.42400,
,,,00.000166000000,   1.43200,
,,,00.000166200000,   1.43200,
,,,00.000166400000,   1.42400,
,,,00.000166600000,   1.44000,
,,,00.000166800000,   1.43200,
,,,00.000167000000,   1.43200,
,,,00.000167200000,   1.42400,
,,,00.000167400000,   1.42400,
,,,00.000167600000,   1.44000,
,,,00.000167800000,   1.43200,
,,,00.000168000000,   1.42400,
,,,00.000168200000,   1.43200,
,,,00.000168400000,   1.44800,
,,,00.000168600000,   1.43200,
,,,00.000168800000,   1.41600,
,,,00.000169000000,   1.44000,
,,,00.000169200000,   1.46400,
,,,00.000169400000,   1.44000,
,,,00.000169600000,   1.41600,
,,,00.000169800000,   1.44000,
,,,00.000170000000,   1.46400,
,,,00.000170200000,   1.42400,
,,,00.000170400000,   1.35200,
,,,00.000170600000,   1.44800,
,,,00.000170800000,   1.44800,
,,,00.000171000000,   1.40000,
,,,00.000171200000,   1.41600,
,,,00.000171400000,   1.44800,
,,,00.000171600000,   1.43200,
,,,00.000171800000,   1.41600,
,,,00.000172000000,   1.44000,
,,,00.000172200000,   1.44800,
,,,00.000172400000,   1.45600,
,,,00.000172600000,   1.44800,
,,,00.000172800000,   1.44800,
,,,00.000173000000,   1.44800,
,,,00.000173200000,   1.44800,
,,,00.000173400000,   1.44800,
,,,00.000173600000,   1.44800,
,,,00.000173800000,   1.45600,
,,,00.000174000000,   1.44800,
,,,00.000174200000,   1.44800,
,,,00.000174400000,   1.44800,
,,,00.000174600000,   1.44800,
,,,00.000174800000,   1.46400,
,,,00.000175000000,   1.46400,
,,,00.000175200000,   1.45600,
,,,00.000175400000,   1.45600,
,,,00.000175600000,   1.46400,
,,,00.000175800000,   1.44000,
,,,00.000176000000,   1.45600,
,,,00.000176200000,   1.45600,
,,,00.000176400000,   1.45600,
,,,00.000176600000,   1.45600,
,,,00.000176800000,   1.44800,
,,,00.000177000000,   1.44800,
,,,00.000177200000,   1.44800,
,,,00.000177400000,   1.47200,
,,,00.000177600000,   1.46400,
,,,00.000177800000,   1.42400,
,,,00.000178000000,   1.46400,
,,,00.000178200000,   1.51200,
,,,00.000178400000,   1.43200,
,,,00.000178600000,   1.43200,
,,,00.000178800000,   1.46400,
,,,00.000179000000,   1.46400,
,,,00.000179200000,   1.44800,
,,,00.000179400000,   1.44000,
,,,00.000179600000,   1.47200,
,,,00.000179800000,   1.46400,
,,,00.000180000000,   1.44800,
,,,00.000180200000,   1.45600,
,,,00.000180400000,   1.47200,
,,,00.000180600000,   1.45600,
,,,00.000180800000,   1.42400,
,,,00.000181000000,   1.44800,
,,,00.000181200000,   1.48800,
,,,00.000181400000,   1.46400,
,,,00.000181600000,   1.47200,
,,,00.000181800000,   1.47200,
,,,00.000182000000,   1.46400,
,,,00.000182200000,   1.47200,
,,,00.000182400000,   1.47200,
,,,00.000182600000,   1.46400,
,,,00.000182800000,   1.48000,
,,,00.000183000000,   1.48000,
,,,00.000183200000,   1.48000,
,,,00.000183400000,   1.47200,
,,,00.000183600000,   1.47200,
,,,00.000183800000,   1.48800,
,,,00.000184000000,   1.48800,
,,,00.000184200000,   1.48000,
,,,00.000184400000,   1.47200,
,,,00.000184600000,   1.48000,
,,,00.000184800000,   1.48800,
,,,00.000185000000,   1.47200,
,,,00.000185200000,   1.47200,
,,,00.000185400000,   1.48800,
,,,00.000185600000,   1.48800,
,,,00.000185800000,   1.48000,
,,,00.000186000000,   1.48000,
,,,00.000186200000,   1.48000,
,,,00.000186400000,   1.48000,
,,,00.000186600000,   1.47200,
,,,00.000186800000,   1.47200,
,,,00.000187000000,   1.48000,
,,,00.000187200000,   1.47200,
,,,00.000187400000,   1.47200,
,,,00.000187600000,   1.46400,
,,,00.000187800000,   1.49600,
,,,00.000188000000,   1.49600,
,,,00.000188200000,   1.46400,
,,,00.000188400000,   1.47200,
,,,00.000188600000,   1.50400,
,,,00.000188800000,   1.47200,
,,,00.000189000000,   1.45600,
,,,00.000189200000,   1.47200,
,,,00.000189400000,   1.48800,
,,,00.000189600000,   1.47200,
,,,00.000189800000,   1.41600,
,,,00.000190000000,   1.49600,
,,,00.000190200000,   1.52000,
,,,00.000190400000,   1.48000,
,,,00.000190600000,   1.47200,
,,,00.000190800000,   1.48800,
,,,00.000191000000,   1.48000,
,,,00.000191200000,   1.47200,
,,,00.000191400000,   1.48000,
,,,00.000191600000,   1.48800,
,,,00.000191800000,   1.48800,
,,,00.000192000000,   1.48000,
,,,00.000192200000,   1.50400,
,,,00.000192400000,   1.49600,
,,,00.000192600000,   1.50400,
,,,00.000192800000,   1.50400,
,,,00.000193000000,   1.51200,
,,,00.000193200000,   1.50400,
,,,00.000193400000,   1.49600,
,,,00.000193600000,   1.50400,
,,,00.000193800000,   1.50400,
,,,00.000194000000,   1.49600,
,,,00.000194200000,   1.50400,
,,,00.000194400000,   1.49600,
,,,00.000194600000,   1.50400,
,,,00.000194800000,   1.51200,
,,,00.000195000000,   1.51200,
,,,00.000195200000,   1.50400,
,,,00.000195400000,   1.51200,
,,,00.000195600000,   1.50400,
,,,00.000195800000,   1.49600,
,,,00.000196000000,   1.50400,
,,,00.000196200000,   1.51200,
,,,00.000196400000,   1.50400,
,,,00.000196600000,   1.50400,
,,,00.000196800000,   1.50400,
,,,00.000197000000,   1.50400,
,,,00.000197200000,   1.49600,
,,,00.000197400000,   1.50400,
,,,00.000197600000,   1.53600,
,,,00.000197800000,   1.49600,
,,,00.000198000000,   1.44800,
,,,00.000198200000,   1.51200,
,,,00.000198400000,   1.51200,
,,,00.000198600000,   1.48000,
,,,00.000198800000,   1.50400,
,,,00.000199000000,   1.51200,
,,,00.000199200000,   1.49600,
,,,00.000199400000,   1.48000,
,,,00.000199600000,   1.50400,
,,,00.000199800000,   1.52000,
,,,00.000200000000,   1.50400,
,,,00.000200200000,   1.46400,
,,,00.000200400000,   1.51200,
,,,00.000200600000,   1.53600,
,,,00.000200800000,   1.49600,
,,,00.000201000000,   1.47200,
,,,00.000201200000,   1.51200,
,,,00.000201400000,   1.52800,
,,,00.000201600000,   1.51200,
,,,00.000201800000,   1.52000,
,,,00.000202000000,   1.52000,
,,,00.000202200000,   1.53600,
,,,00.000202400000,   1.52000,
,,,00.000202600000,   1.52000,
,,,00.000202800000,   1.53600,
,,,00.000203000000,   1.52800,
,,,00.000203200000,   1.52800,
,,,00.000203400000,   1.52000,
,,,00.000203600000,   1.54400,
,,,00.000203800000,   1.53600,
,,,00.000204000000,   1.52800,
,,,00.000204200000,   1.52800,
,,,00.000204400000,   1.52800,
,,,00.000204600000,   1.53600,
,,,00.000204800000,   1.52800,
,,,00.000205000000,   1.52000,
,,,00.000205200000,   1.54400,
,,,00.000205400000,   1.52800,
,,,00.000205600000,   1.53600,
,,,00.000205800000,   1.52000,
,,,00.000206000000,   1.54400,
,,,00.000206200000,   1.54400,
,,,00.000206400000,   1.52000,
,,,00.000206600000,   1.52800,
,,,00.000206800000,   1.53600,
,,,00.000207000000,   1.52000,
,,,00.000207200000,   1.53600,
,,,00.000207400000,   1.53600,
,,,00.000207600000,   1.52800,
,,,00.000207800000,   1.52800,
,,,00.000208000000,   1.56000,
,,,00.000208200000,   1.52800,
,,,00.000208400000,   1.49600,
,,,00.000208600000,   1.54400,
,,,00.000208800000,   1.56800,
,,,00.000209000000,   1.52000,
,,,00.000209200000,   1.51200,
,,,00.000209400000,   1.53600,
,,,00.000209600000,   1.57600,
,,,00.000209800000,   1.52000,
,,,00.000210000000,   1.49600,
,,,00.000210200000,   1.53600,
,,,00.000210400000,   1.54400,
,,,00.000210600000,   1.50400,
,,,00.000210800000,   1.52000,
,,,00.000211000000,   1.55200,
,,,00.000211200000,   1.53600,
,,,00.000211400000,   1.52800,
,,,00.000211600000,   1.56000,
,,,00.000211800000,   1.57600,
,,,00.000212000000,   1.58400,
,,,00.000212200000,   1.57600,
,,,00.000212400000,   1.56800,
,,,00.000212600000,   1.56000,
,,,00.000212800000,   1.56800,
,,,00.000213000000,   1.55200,
,,,00.000213200000,   1.55200,
,,,00.000213400000,   1.55200,
,,,00.000213600000,   1.57600,
,,,00.000213800000,   1.55200,
,,,00.000214000000,   1.55200,
,,,00.000214200000,   1.55200,
,,,00.000214400000,   1.56000,
,,,00.000214600000,   1.56000,
,,,00.000214800000,   1.55200,
,,,00.000215000000,   1.55200,
,,,00.000215200000,   1.56800,
,,,00.000215400000,   1.56000,
,,,00.000215600000,   1.55200,
,,,00.000215800000,   1.55200,
,,,00.000216000000,   1.56000,
,,,00.000216200000,   1.55200,
,,,00.000216400000,   1.56000,
,,,00.000216600000,   1.55200,
,,,00.000216800000,   1.55200,
,,,00.000217000000,   1.57600,
,,,00.000217200000,   1.54400,
,,,00.000217400000,   1.50400,
,,,00.000217600000,   1.57600,
,,,00.000217800000,   1.60000,
,,,00.000218000000,   1.55200,
,,,00.000218200000,   1.53600,
,,,00.000218400000,   1.56800,
,,,00.000218600000,   1.55200,
,,,00.000218800000,   1.53600,
,,,00.000219000000,   1.56000,
,,,00.000219200000,   1.56800,
,,,00.000219400000,   1.56800,
,,,00.000219600000,   1.54400,
,,,00.000219800000,   1.55200,
,,,00.000220000000,   1.56800,
,,,00.000220200000,   1.56000,
,,,00.000220400000,   1.52000,
,,,00.000220600000,   1.55200,
,,,00.000220800000,   1.58400,
,,,00.000221000000,   1.55200,
,,,00.000221200000,   1.56000,
,,,00.000221400000,   1.57600,
,,,00.000221600000,   1.57600,
,,,00.000221800000,   1.57600,
,,,00.000222000000,   1.57600,
,,,00.000222200000,   1.57600,
,,,00.000222400000,   1.57600,
,,,00.000222600000,   1.59200,
,,,00.000222800000,   1.57600,
,,,00.000223000000,   1.57600,
,,,00.000223200000,   1.58400,
,,,00.000223400000,   1.59200,
,,,00.000223600000,   1.58400,
,,,00.000223800000,   1.58400,
,,,00.000224000000,   1.56800,
,,,00.000224200000,   1.58400,
,,,00.000224400000,   1.59200,
,,,00.000224600000,   1.57600,
,,,00.000224800000,   1.57600,
,,,00.000225000000,   1.58400,
,,,00.000225200000,   1.58400,
,,,00.000225400000,   1.58400,
,,,00.000225600000,   1.58400,
,,,00.000225800000,   1.57600,
,,,00.000226000000,   1.59200,
,,,00.000226200000,   1.57600,
,,,00.000226400000,   1.57600,
,,,00.000226600000,   1.59200,
,,,00.000226800000,   1.58400,
,,,00.000227000000,   1.57600,
,,,00.000227200000,   1.57600,
,,,00.000227400000,   1.59200,
,,,00.000227600000,   1.59200,
,,,00.000227800000,   1.56000,
,,,00.000228000000,   1.58400,
,,,00.000228200000,   1.60800,
,,,00.000228400000,   1.58400,
,,,00.000228600000,   1.56000,
,,,00.000228800000,   1.58400,
,,,00.000229000000,   1.60000,
,,,00.000229200000,   1.55200,
,,,00.000229400000,   1.53600,
,,,00.000229600000,   1.58400,
,,,00.000229800000,   1.60000,
,,,00.000230000000,   1.57600,
,,,00.000230200000,   1.57600,
,,,00.000230400000,   1.59200,
,,,00.000230600000,   1.57600,
,,,00.000230800000,   1.56000,
,,,00.000231000000,   1.59200,
,,,00.000231200000,   1.58400,
,,,00.000231400000,   1.59200,
,,,00.000231600000,   1.60000,
,,,00.000231800000,   1.60000,
,,,00.000232000000,   1.60000,
,,,00.000232200000,   1.60000,
,,,00.000232400000,   1.60800,
,,,00.000232600000,   1.60800,
,,,00.000232800000,   1.60000,
,,,00.000233000000,   1.60000,
,,,00.000233200000,   1.60800,
,,,00.000233400000,   1.60800,
,,,00.000233600000,   1.60000,
,,,00.000233800000,   1.60800,
,,,00.000234000000,   1.60000,
,,,00.000234200000,   1.60800,
,,,00.000234400000,   1.60800,
,,,00.000234600000,   1.60000,
,,,00.000234800000,   1.60800,
,,,00.000235000000,   1.61600,
,,,00.000235200000,   1.60000,
,,,00.000235400000,   1.60000,
,,,00.000235600000,   1.59200,
,,,00.000235800000,   1.61600,
,,,00.000236000000,   1.58400,
,,,00.000236200000,   1.60800,
,,,00.000236400000,   1.62400,
,,,00.000236600000,   1.60800,
,,,00.000236800000,   1.59200,
,,,00.000237000000,   1.62400,
,,,00.000237200000,   1.66400,
,,,00.000237400000,   1.57600,
,,,00.000237600000,   1.57600,
,,,00.000237800000,   1.60000,
,,,00.000238000000,   1.61600,
,,,00.000238200000,   1.57600,
,,,00.000238400000,   1.60000,
,,,00.000238600000,   1.61600,
,,,00.000238800000,   1.60000,
,,,00.000239000000,   1.60000,
,,,00.000239200000,   1.60800,
,,,00.000239400000,   1.63200,
,,,00.000239600000,   1.60800,
,,,00.000239800000,   1.56800,
,,,00.000240000000,   1.61600,
,,,00.000240200000,   1.63200,
,,,00.000240400000,   1.60800,
,,,00.000240600000,   1.60800,
,,,00.000240800000,   1.62400,
,,,00.000241000000,   1.62400,
,,,00.000241200000,   1.61600,
,,,00.000241400000,   1.62400,
,,,00.000241600000,   1.64000,
,,,00.000241800000,   1.63200,
,,,00.000242000000,   1.62400,
,,,00.000242200000,   1.62400,
,,,00.000242400000,   1.63200,
,,,00.000242600000,   1.63200,
,,,00.000242800000,   1.62400,
,,,00.000243000000,   1.62400,
,,,00.000243200000,   1.64000,
,,,00.000243400000,   1.64000,
,,,00.000243600000,   1.63200,
,,,00.000243800000,   1.62400,
,,,00.000244000000,   1.62400,
,,,00.000244200000,   1.63200,
,,,00.000244400000,   1.62400,
,,,00.000244600000,   1.62400,
,,,00.000244800000,   1.64000,
,,,00.000245000000,   1.63200,
,,,00.000245200000,   1.63200,
,,,00.000245400000,   1.63200,
,,,00.000245600000,   1.62400,
,,,00.000245800000,   1.64000,
,,,00.000246000000,   1.62400,
,,,00.000246200000,   1.62400,
,,,00.000246400000,   1.62400,
,,,00.000246600000,   1.63200,
,,,00.000246800000,   1.64000,
,,,00.000247000000,   1.64000,
,,,00.000247200000,   1.60000,
,,,00.000247400000,   1.64000,
,,,00.000247600000,   1.65600,
,,,00.000247800000,   1.61600,
,,,00.000248000000,   1.56800,
,,,00.000248200000,   1.64000,
,,,00.000248400000,   1.64000,
,,,00.000248600000,   1.61600,
,,,00.000248800000,   1.57600,
,,,00.000249000000,   1.64800,
,,,00.000249200000,   1.67200,
,,,00.000249400000,   1.62400,
,,,00.000249600000,   1.61600,
,,,00.000249800000,   1.64000,
