20	-0.001222651	-0.001222651
40	-0.001222651	-0.002445302
60	-0.0001287	-0.002574003
80	-0.002316602	-0.004890605
100	-0.0001287	-0.005019305
120	-0.002316602	-0.007335907
140	-0.001222651	-0.008558559
160	-0.0001287	-0.008687259
180	-0.001222651	-0.00990991
200	-0.001222651	-0.011132561
220	-0.001222651	-0.012355212
240	-0.001222651	-0.013577864
260	-0.001222651	-0.014800515
280	-0.0001287	-0.014929215
300	-0.001222651	-0.016151866
320	-0.001222651	-0.017374517
340	-0.001222651	-0.018597169
360	-0.001222651	-0.01981982
380	-0.011068211	-0.030888031
400	0.008622909	-0.022265122
420	-0.001222651	-0.023487773
440	0.011904762	-0.011583012
460	0.006435006	-0.005148005
480	0.006435006	0.001287001
500	-0.004504505	-0.003217503
520	0.006435006	0.003217503
540	-0.015444015	-0.012226512
560	0.006435006	-0.005791506
580	0.006435006	0.000643501
600	-0.004504505	-0.003861004
620	-0.004504505	-0.008365508
640	0.006435006	-0.001930502
660	-0.004504505	-0.006435006
680	0.006435006	0
700	-0.004504505	-0.004504505
720	-0.004504505	-0.009009009
740	0.006435006	-0.002574003
760	-0.004504505	-0.007078507
780	0.006435006	-0.000643501
800	-0.004504505	-0.005148005
820	0.006435006	0.001287001
840	-0.004504505	-0.003217503
860	0.006435006	0.003217503
880	-0.004504505	-0.001287001
900	-0.004504505	-0.005791506
920	0.006435006	0.000643501
940	-0.004504505	-0.003861004
960	0.006435006	0.002574003
980	-0.004504505	-0.001930502
1000	0.006435006	0.004504505
1020	-0.004504505	0

